testfile/fixed_point_arith.vcd
$date
	Tue Mar 10 12:37:06 2026
$end
$version
	Icarus Verilog
$end
$timescale
	1ps
$end
$scope module fixed_point_arith_tb $end
$var reg 22 ! a [21:0] $end
$var reg 1 " all_passed $end
$var reg 22 # b [21:0] $end
$var reg 22 $ c [21:0] $end
$var reg 1 % passed $end
$var real 1 & aval $end
$var real 1 ' bval $end
$var real 1 ( cval $end
$var real 1 ) diff $end
$var real 1 * tolerance $end
$scope function fp_abs $end
$var reg 22 + a [21:0] $end
$upscope $end
$scope function fp_add $end
$var reg 22 , a [21:0] $end
$var reg 22 - b [21:0] $end
$upscope $end
$scope function fp_apply_sign $end
$var reg 22 . a [21:0] $end
$var reg 22 / b [21:0] $end
$upscope $end
$scope function fp_count_leading_zeros $end
$var reg 22 0 a [21:0] $end
$var reg 1 1 found $end
$var integer 32 2 i [31:0] $end
$upscope $end
$scope function fp_floor $end
$var reg 22 3 a [21:0] $end
$var reg 22 4 out [21:0] $end
$upscope $end
$scope function fp_fract $end
$var reg 22 5 a [21:0] $end
$upscope $end
$scope function fp_from_real $end
$var real 1 6 val $end
$upscope $end
$scope function fp_gt $end
$var reg 22 7 a [21:0] $end
$var reg 22 8 b [21:0] $end
$upscope $end
$scope function fp_inv_sqrt $end
$var reg 22 9 a [21:0] $end
$var real 1 : r_a $end
$var real 1 ; r_inv $end
$upscope $end
$scope function fp_lt $end
$var reg 22 < a [21:0] $end
$var reg 22 = b [21:0] $end
$upscope $end
$scope function fp_max $end
$var reg 22 > a [21:0] $end
$var reg 22 ? b [21:0] $end
$upscope $end
$scope function fp_min $end
$var reg 22 @ a [21:0] $end
$var reg 22 A b [21:0] $end
$upscope $end
$scope function fp_mod $end
$var reg 22 B a [21:0] $end
$var reg 22 C b [21:0] $end
$var reg 44 D div [43:0] $end
$var reg 22 E quotient [21:0] $end
$upscope $end
$scope function fp_mul $end
$var reg 22 F a [21:0] $end
$var reg 22 G b [21:0] $end
$var reg 44 H temp_result [43:0] $end
$upscope $end
$scope function fp_mul_2 $end
$var reg 22 I a [21:0] $end
$upscope $end
$scope function fp_mul_3 $end
$var reg 22 J a [21:0] $end
$upscope $end
$scope function fp_mul_4 $end
$var reg 22 K a [21:0] $end
$upscope $end
$scope function fp_mul_5 $end
$var reg 22 L a [21:0] $end
$upscope $end
$scope function fp_mul_6 $end
$var reg 22 M a [21:0] $end
$upscope $end
$scope function fp_mul_7 $end
$var reg 22 N a [21:0] $end
$upscope $end
$scope function fp_mul_8 $end
$var reg 22 O a [21:0] $end
$upscope $end
$scope function fp_mul_half $end
$var reg 22 P a [21:0] $end
$upscope $end
$scope function fp_neg $end
$var reg 22 Q a [21:0] $end
$upscope $end
$scope function fp_sign $end
$var reg 22 R a [21:0] $end
$upscope $end
$scope function fp_sub $end
$var reg 22 S a [21:0] $end
$var reg 22 T b [21:0] $end
$upscope $end
$scope function fp_to_real $end
$var reg 22 U a [21:0] $end
$upscope $end
$upscope $end
$enddefinitions $end
$comment Show the parameter values. $end
$dumpall
$end
#0
$dumpvars
b1111001101101111000001 U
bx T
bx S
bx R
b110010010000111111 Q
bx P
bx O
bx N
bx M
bx L
bx K
bx J
bx I
bx H
bx G
bx F
bx E
bx D
bx C
bx B
bx A
bx @
bx ?
bx >
bx =
bx <
r0 ;
r0 :
bx 9
bx 8
bx 7
r3.14159 6
bx 5
bx 4
bx 3
bx 2
x1
bx 0
bx /
bx .
bx -
bx ,
bx +
r0.001 *
r3.696289062382618e-06 )
r-3.14159 (
r0 '
r3.14159 &
1%
b1111001101101111000001 $
bx #
1"
b110010010000111111 !
$end
#10000
r3.696289062382618e-06 )
b110010010000111111 U
b110010010000111111 $
b1111001101101111000001 Q
b1111001101101111000001 !
r-3.14159 6
r3.14159 (
r-3.14159 &
#20000
r3.696289062382618e-06 )
b110010010000111111 +
b110010010000111111 !
r3.14159 6
r3.14159 &
#30000
r3.696289062382618e-06 )
b1111001101101111000001 +
b1111001101101111000001 !
r-3.14159 6
r-3.14159 &
#40000
r4.184570312482094e-06 )
b100000011100010101 U
b100000011100010101 $
b110011110111110100 ,
b1111101100100100100001 -
b1111101100100100100001 #
b110011110111110100 !
r-1.21434 6
r2.02766 (
r-1.21434 '
r3.242 &
#50000
r4.604492187532117e-06 )
b1000111010011010011 U
b1000111010011010011 $
b110011110111110100 S
b1111101100100100100001 T
r-1.21434 6
r4.45634 (
#60000
r1.462722656242477e-05 )
b1111000001000000100111 U
b1111000001000000100111 $
b11111111110000010000001001111001000001110100 H
b110011110111110100 F
b1111101100100100100001 G
r-1.21434 6
r-3.93689028 (
#70000
r2.105790975015509e-05 )
b1010100011110001100 U
b1010100011110001100 $
b10101000111100011000110000010001010 H
b11011001001101101 F
b110001110001110010 G
b110001110001110010 #
b11011001001101101 !
r3.111111 6
r5.279458922559 (
r3.111111 '
r1.696969 &
#80000
r3.631669881265509e-05 )
b1110101011100001110011 U
b1110101011100001110011 $
b11111111101010111000011100111001111101110110 H
b1111100100110110010011 F
b1111100100110110010011 !
r3.111111 6
r-5.279458922559 (
r-1.696969 &
#90000
r2.105790975015509e-05 )
b1010100011110001100 U
b1010100011110001100 $
b10101000111100011000110000010001010 H
b1111001110001110001110 G
b1111001110001110001110 #
r-3.111111 6
r5.279458922559 (
r-3.111111 '
#100000
r3.631669881265509e-05 )
b1110101011100001110011 U
b1110101011100001110011 $
b11111111101010111000011100111001111101110110 H
b11011001001101101 F
b11011001001101101 !
r-3.111111 6
r-5.279458922559 (
r1.696969 &
#110000
r3.501953124818158e-06 )
b1111001110001110001110 U
b1111001110001110001110 $
b1101011001001101101 @
b1111001110001110001110 A
b1101011001001101101 !
r-3.111111 6
r-3.111111 (
r6.696969 &
#120000
r6.708007812328276e-06 )
b1101011001001101101 U
b1101011001001101101 $
b1101011001001101101 >
b1111001110001110001110 ?
r-3.111111 6
r6.696969 (
