testfile/fp_inv_sqrt_folded.vcd
$date
	Tue Mar 10 12:37:06 2026
$end
$version
	Icarus Verilog
$end
$timescale
	1ps
$end
$scope module fp_inv_sqrt_folded_tb $end
$var wire 1 ! valid_out $end
$var wire 32 " res_out_bits [31:0] $end
$var wire 1 # ready_out $end
$var parameter 32 $ DATA_WIDTH $end
$var parameter 32 % FRAC_BITS $end
$var real 1 & REAL_SCALE $end
$var reg 32 ' a_in_bits [31:0] $end
$var reg 1 ( all_passed $end
$var reg 1 ) clk $end
$var reg 1 * rst $end
$var reg 1 + valid_in $end
$var real 1 , tolerance $end
$scope function fp_abs $end
$var reg 22 - a [21:0] $end
$upscope $end
$scope function fp_add $end
$var reg 22 . a [21:0] $end
$var reg 22 / b [21:0] $end
$upscope $end
$scope function fp_apply_sign $end
$var reg 22 0 a [21:0] $end
$var reg 22 1 b [21:0] $end
$upscope $end
$scope function fp_count_leading_zeros $end
$var reg 22 2 a [21:0] $end
$var reg 1 3 found $end
$var integer 32 4 i [31:0] $end
$upscope $end
$scope function fp_floor $end
$var reg 22 5 a [21:0] $end
$var reg 22 6 out [21:0] $end
$upscope $end
$scope function fp_fract $end
$var reg 22 7 a [21:0] $end
$upscope $end
$scope function fp_from_real $end
$var real 1 8 val $end
$upscope $end
$scope function fp_gt $end
$var reg 22 9 a [21:0] $end
$var reg 22 : b [21:0] $end
$upscope $end
$scope function fp_inv_sqrt $end
$var reg 22 ; a [21:0] $end
$var real 1 < r_a $end
$var real 1 = r_inv $end
$upscope $end
$scope function fp_lt $end
$var reg 22 > a [21:0] $end
$var reg 22 ? b [21:0] $end
$upscope $end
$scope function fp_max $end
$var reg 22 @ a [21:0] $end
$var reg 22 A b [21:0] $end
$upscope $end
$scope function fp_min $end
$var reg 22 B a [21:0] $end
$var reg 22 C b [21:0] $end
$upscope $end
$scope function fp_mod $end
$var reg 22 D a [21:0] $end
$var reg 22 E b [21:0] $end
$var reg 44 F div [43:0] $end
$var reg 22 G quotient [21:0] $end
$upscope $end
$scope function fp_mul $end
$var reg 22 H a [21:0] $end
$var reg 22 I b [21:0] $end
$var reg 44 J temp_result [43:0] $end
$upscope $end
$scope function fp_mul_2 $end
$var reg 22 K a [21:0] $end
$upscope $end
$scope function fp_mul_3 $end
$var reg 22 L a [21:0] $end
$upscope $end
$scope function fp_mul_4 $end
$var reg 22 M a [21:0] $end
$upscope $end
$scope function fp_mul_5 $end
$var reg 22 N a [21:0] $end
$upscope $end
$scope function fp_mul_6 $end
$var reg 22 O a [21:0] $end
$upscope $end
$scope function fp_mul_7 $end
$var reg 22 P a [21:0] $end
$upscope $end
$scope function fp_mul_8 $end
$var reg 22 Q a [21:0] $end
$upscope $end
$scope function fp_mul_half $end
$var reg 22 R a [21:0] $end
$upscope $end
$scope function fp_neg $end
$var reg 22 S a [21:0] $end
$upscope $end
$scope function fp_sign $end
$var reg 22 T a [21:0] $end
$upscope $end
$scope function fp_sub $end
$var reg 22 U a [21:0] $end
$var reg 22 V b [21:0] $end
$upscope $end
$scope function fp_to_real $end
$var reg 22 W a [21:0] $end
$upscope $end
$scope function real_to_fp $end
$var real 1 X val $end
$upscope $end
$scope module uut $end
$var wire 22 Y a_in [21:0] $end
$var wire 1 ) clk_in $end
$var wire 22 Z res_out [21:0] $end
$var wire 1 * rst_in $end
$var wire 22 [ slope [21:0] $end
$var wire 1 + valid_in $end
$var wire 22 \ x_shifted [21:0] $end
$var wire 22 ] mult1_res [21:0] $end
$var wire 6 ^ final_shift [5:0] $end
$var wire 6 _ _diff [5:0] $end
$var parameter 32 ` MAX_NEWTON_ITER $end
$var reg 6 a diff [5:0] $end
$var reg 22 b mult1_a [21:0] $end
$var reg 22 c mult1_b [21:0] $end
$var reg 3 d newton_iter [2:0] $end
$var reg 3 e newton_iter_step [2:0] $end
$var reg 22 f original [21:0] $end
$var reg 1 # ready_out $end
$var reg 4 g stage [3:0] $end
$var reg 1 ! valid_out $end
$var reg 22 h x [21:0] $end
$var reg 22 i x_mult [21:0] $end
$upscope $end
$scope task test_vector $end
$var reg 1 j passed $end
$var real 1 k actual_real $end
$var real 1 l diff $end
$var real 1 m expected_val $end
$var real 1 n input_val $end
$upscope $end
$upscope $end
$enddefinitions $end
$comment Show the parameter values. $end
$dumpall
b10 `
r65536 &
b10000 %
b100000 $
$end
#0
$dumpvars
r0 n
r0 m
r0 l
r0 k
xj
bx i
bx h
bx g
bx f
bx e
bx d
b0 c
b0 b
bx a
b10000 _
bx ^
b0 ]
bx \
b1101010000010011 [
bx Z
b0 Y
r0 X
bx W
bx V
bx U
bx T
bx S
bx R
bx Q
bx P
bx O
bx N
bx M
bx L
bx K
b0 J
b0 I
b0 H
bx G
bx F
bx E
bx D
bx C
bx B
bx A
bx @
bx ?
bx >
r0 =
r0 <
bx ;
bx :
bx 9
r0 8
bx 7
bx 6
bx 5
b11111111111111111111111111111111 4
03
bx 2
bx 1
bx 0
bx /
bx .
bx -
r0.0001 ,
0+
0*
0)
1(
b0 '
x#
bx "
x!
$end
#5000
1)
#10000
0)
1*
#15000
1#
0!
b0 g
1)
#20000
0)
0*
#25000
1)
#30000
0)
#35000
1)
#40000
0)
#45000
1)
#50000
0)
#55000
1)
#60000
0)
#65000
1)
#70000
0)
#75000
1)
#80000
0)
#85000
1)
#90000
0)
#95000
1)
#100000
0)
#105000
1)
#110000
0)
#115000
1)
#120000
b1000000000000000 Y
1+
b1000000000000000 '
r0.5 X
0)
r1.414213562373095 m
r0.5 n
#125000
b0 _
13
b11111111111111111111111111111111 4
b1000000000000000 2
b1 g
b1000000000000000 f
0#
1)
#130000
0+
0)
#135000
b1101010000010011 H
b0 ^
b1000000000000000 U
b1000000000000000 V
b1101010000010011 b
b10 g
b0 a
1)
#140000
0)
#145000
b11111111111111101 ]
b111111111111111010111010001010001 J
b10110101000001001 I
b10110101000001001 H
b10110101000001001 c
b10110101000001001 b
b10110101000001001 \
b0 e
b0 d
b11 g
b10110101000001001 "
b10110101000001001 Z
b10110101000001001 h
b10110101000001001 U
b0 V
1)
#150000
0)
#155000
b111111111111111 ]
b1111111111111110100000000000000 J
b11111111111111101 I
b100000000000000 H
b11111111111111101 c
b100000000000000 b
b1 e
b11111111111111101 i
1)
#160000
0)
#165000
b10110101000001010 ]
b101101010000010100110101000001001 J
b10000000000000001 I
b10110101000001001 H
b11000000000000000 U
b111111111111111 V
b10000000000000001 c
b10110101000001001 b
b10 e
b111111111111111 i
1)
#170000
0)
#175000
b100000000000000000 ]
b1000000000000000000100100001100100 J
b10110101000001010 I
b10110101000001010 H
b10110101000001010 c
b10110101000001010 b
b10110101000001010 \
b1 d
b0 e
b10110101000001010 "
b10110101000001010 Z
b10110101000001010 h
1)
#180000
0)
#185000
b1000000000000000 ]
b10000000000000000000000000000000 J
b100000000000000000 I
b100000000000000 H
b100000000000000000 c
b100000000000000 b
b1 e
b100000000000000000 i
1)
#190000
0)
#195000
b10110101000001010 ]
b101101010000010100000000000000000 J
b10000000000000000 I
b10110101000001010 H
b1000000000000000 V
b10000000000000000 c
b10110101000001010 b
b10 e
b1000000000000000 i
1)
#200000
0)
#205000
b1111111111111110 ]
b11111111111111101011101000101000 J
b1011010100000100 I
b1011010100000100 c
b10110101000001010 b
b100 g
b10 d
b0 e
1)
#210000
0)
#215000
b0 ]
b0 J
b0 I
b0 H
b0 c
b0 b
r1.290994448735806 m
r0.6 n
1j
r1.52551753007657e-06 l
r1.414215087890625 k
b10110101000001010 W
b0 g
1#
1!
1)
#220000
b1001100110011010 Y
1+
b1001100110011010 '
r0.6 X
0)
#225000
b11111111111111111111111111111111 4
13
b1001100110011010 2
b1 g
b1001100110011010 f
0#
0!
1)
#230000
0+
0)
#235000
b1010100110101 ]
b10101001101010110111001101110 J
b1100110011010 I
b1101010000010011 H
b1100110011010 c
b1001100110011010 U
b1101010000010011 b
b10 g
1)
#240000
0)
#245000
b11100010111000011 ]
b111000101110000111100111110010000 J
b10101010011010100 I
b10101010011010100 H
b10101010011010100 c
b10101010011010100 b
b10101010011010100 \
b0 d
b11 g
b10101010011010100 "
b10101010011010100 Z
b10101010011010100 h
b10110101000001001 U
b1010100110101 V
1)
#250000
0)
#255000
b1000100000100001 ]
b10001000001000010100000100100111 J
b11100010111000011 I
b100110011001101 H
b11100010111000011 c
b100110011001101 b
b1 e
b11100010111000011 i
1)
#260000
0)
#265000
b10100101000000001 ]
b101001010000000010111000010101100 J
b1111011111011111 I
b10101010011010100 H
b11000000000000000 U
b1000100000100001 V
b1111011111011111 c
b10101010011010100 b
b10 e
b1000100000100001 i
1)
#270000
0)
#275000
b11010100101100110 ]
b110101001011001101001010000000001 J
b10100101000000001 I
b10100101000000001 H
b10100101000000001 c
b10100101000000001 b
b10100101000000001 \
b1 d
b0 e
b10100101000000001 "
b10100101000000001 Z
b10100101000000001 h
1)
#280000
0)
#285000
b111111110011110 ]
b1111111100111101110111010101110 J
b11010100101100110 I
b100110011001101 H
b11010100101100110 c
b100110011001101 b
b1 e
b11010100101100110 i
1)
#290000
0)
#295000
b10100101001111111 ]
b101001010011111110101010001100010 J
b10000000001100010 I
b10100101000000001 H
b111111110011110 V
b10000000001100010 c
b10100101000000001 b
b10 e
b111111110011110 i
1)
#300000
0)
#305000
b1110100110110000 ]
b11101001101100001111010011111100 J
b1011010100000100 I
b10100101001111111 H
b1011010100000100 c
b10100101001111111 b
b10100101001111111 \
b100 g
b10 d
b0 e
b10100101001111111 "
b10100101001111111 Z
b10100101001111111 h
1)
#310000
0)
#315000
b0 ]
b0 J
b0 I
b0 H
b0 c
b0 b
r1.195228609334394 m
r0.7 n
r5.917475131900218e-06 l
r1.291000366210938 k
b10100101001111111 W
b0 g
1#
1!
1)
#320000
b1011001100110011 Y
1+
b1011001100110011 '
r0.7 X
0)
#325000
b11111111111111111111111111111111 4
13
b1011001100110011 2
b1 g
b1011001100110011 f
0#
0!
1)
#330000
0+
0)
#335000
b10101001101010 ]
b101010011010100000100011001001 J
b11001100110011 I
b1101010000010011 H
b11001100110011 c
b1011001100110011 U
b1000000000000000 V
b1101010000010011 b
b10 g
1)
#340000
0)
#345000
b11000111100001101 ]
b110001111000011011010010011000001 J
b10011111110011111 I
b10011111110011111 H
b10011111110011111 c
b10011111110011111 b
b10011111110011111 \
b0 d
b11 g
b10011111110011111 "
b10011111110011111 Z
b10011111110011111 h
b10110101000001001 U
b10101001101010 V
1)
#350000
0)
#355000
b1000101110101010 ]
b10001011101010100000001111000101 J
b11000111100001101 I
b101100110011001 H
b11000111100001101 c
b101100110011001 b
b1 e
b11000111100001101 i
1)
#360000
0)
#365000
b10011000100001110 ]
b100110001000011101110101101101010 J
b1111010001010110 I
b10011111110011111 H
b11000000000000000 U
b1000101110101010 V
b1111010001010110 c
b10011111110011111 b
b10 e
b1000101110101010 i
1)
#370000
0)
#375000
b10110101110000010 ]
b101101011100000100101110011000100 J
b10011000100001110 I
b10011000100001110 H
b10011000100001110 c
b10011000100001110 b
b10011000100001110 \
b1 d
b0 e
b10011000100001110 "
b10011000100001110 Z
b10011000100001110 h
1)
#380000
0)
#385000
b111111100111001 ]
b1111111001110010111001010110010 J
b10110101110000010 I
b101100110011001 H
b10110101110000010 c
b101100110011001 b
b1 e
b10110101110000010 i
1)
#390000
0)
#395000
b10011000111111011 ]
b100110001111110110010000111100010 J
b10000000011000111 I
b10011000100001110 H
b111111100111001 V
b10000000011000111 c
b10011000100001110 b
b10 e
b111111100111001 i
1)
#400000
0)
#405000
b1101100001011011 ]
b11011000010110110011111011101100 J
b1011010100000100 I
b10011000111111011 H
b1011010100000100 c
b10011000111111011 b
b10011000111111011 \
b100 g
b10 d
b0 e
b10011000111111011 "
b10011000111111011 Z
b10011000111111011 h
1)
#410000
0)
#415000
b0 ]
b0 J
b0 I
b0 H
b0 c
b0 b
r1.118033988749895 m
r0.8 n
r7.596720293934212e-06 l
r1.195236206054688 k
b10011000111111011 W
b0 g
1#
1!
1)
#420000
b1100110011001101 Y
1+
b1100110011001101 '
r0.8 X
0)
#425000
b11111111111111111111111111111111 4
13
b1100110011001101 2
b1 g
b1100110011001101 f
0#
0!
1)
#430000
0+
0)
#435000
b11111110011111 ]
b111111100111110111011100110111 J
b100110011001101 I
b1101010000010011 H
b100110011001101 c
b1100110011001101 U
b1000000000000000 V
b1101010000010011 b
b10 g
1)
#440000
0)
#445000
b10101101111011010 ]
b101011011110110101111001111100100 J
b10010101001101010 I
b10010101001101010 H
b10010101001101010 c
b10010101001101010 b
b10010101001101010 \
b0 d
b11 g
b10010101001101010 "
b10010101001101010 Z
b10010101001101010 h
b10110101000001001 U
b11111110011111 V
1)
#450000
0)
#455000
b1000101100100011 ]
b10001011001000110111010011011100 J
b10101101111011010 I
b110011001100110 H
b10101101111011010 c
b110011001100110 b
b1 e
b10101101111011010 i
1)
#460000
0)
#465000
b10001110101101110 ]
b100011101011011101010010110000010 J
b1111010011011101 I
b10010101001101010 H
b11000000000000000 U
b1000101100100011 V
b1111010011011101 c
b10010101001101010 b
b10 e
b1000101100100011 i
1)
#470000
0)
#475000
b10011111000111110 ]
b100111110001111100001101101000100 J
b10001110101101110 I
b10001110101101110 H
b10001110101101110 c
b10001110101101110 b
b10001110101101110 \
b1 d
b0 e
b10001110101101110 "
b10001110101101110 Z
b10001110101101110 h
1)
#480000
0)
#485000
b111111101001011 ]
b1111111010010111000000010110100 J
b10011111000111110 I
b110011001100110 H
b10011111000111110 c
b110011001100110 b
b1 e
b10011111000111110 i
1)
#490000
0)
#495000
b10001111000110111 ]
b100011110001101111100111011000110 J
b10000000010110101 I
b10001110101101110 H
b111111101001011 V
b10000000010110101 c
b10001110101101110 b
b10 e
b111111101001011 i
1)
#500000
0)
#505000
b1100101001100001 ]
b11001010011000010101101111011100 J
b1011010100000100 I
b10001111000110111 H
b1011010100000100 c
b10001111000110111 b
b10001111000110111 \
b100 g
b10 d
b0 e
b10001111000110111 "
b10001111000110111 Z
b10001111000110111 h
1)
#510000
0)
#515000
b0 ]
b0 J
b0 I
b0 H
b0 c
b0 b
r1.05409255338946 m
r0.9 n
r7.255351457402526e-06 l
r1.118026733398438 k
b10001111000110111 W
b0 g
1#
1!
1)
#520000
b1110011001100110 Y
1+
b1110011001100110 '
r0.9 X
0)
#525000
b11111111111111111111111111111111 4
13
b1110011001100110 2
b1 g
b1110011001100110 f
0#
0!
1)
#530000
0+
0)
#535000
b101010011010100 ]
b1010100110101000001000110010010 J
b110011001100110 I
b1101010000010011 H
b110011001100110 c
b1110011001100110 U
b1000000000000000 V
b1101010000010011 b
b10 g
1)
#540000
0)
#545000
b10010110000101011 ]
b100101100001010111011110011111001 J
b10001010100110101 I
b10001010100110101 H
b10001010100110101 c
b10001010100110101 b
b10001010100110101 \
b0 d
b11 g
b10001010100110101 "
b10001010100110101 Z
b10001010100110101 h
b10110101000001001 U
b101010011010100 V
1)
#550000
0)
#555000
b1000011100010011 ]
b10000111000100110001110110010001 J
b10010110000101011 I
b111001100110011 H
b10010110000101011 c
b111001100110011 b
b1 e
b10010110000101011 i
1)
#560000
0)
#565000
b10000110110001011 ]
b100001101100010111111101000010001 J
b1111100011101101 I
b10001010100110101 H
b11000000000000000 U
b1000011100010011 V
b1111100011101101 c
b10001010100110101 b
b10 e
b1000011100010011 i
1)
#570000
0)
#575000
b10001101111001101 ]
b100011011110011010110100101111001 J
b10000110110001011 I
b10000110110001011 H
b10000110110001011 c
b10000110110001011 b
b10000110110001011 \
b1 d
b0 e
b10000110110001011 "
b10000110110001011 Z
b10000110110001011 h
1)
#580000
0)
#585000
b111111110110101 ]
b1111111101101011010000011010111 J
b10001101111001101 I
b111001100110011 H
b10001101111001101 c
b111001100110011 b
b1 e
b10001101111001101 i
1)
#590000
0)
#595000
b10000110111011001 ]
b100001101110110011111011110111001 J
b10000000001001011 I
b10000110110001011 H
b111111110110101 V
b10000000001001011 c
b10000110110001011 b
b10 e
b111111110110101 i
1)
#600000
0)
#605000
b1011111011001110 ]
b10111110110011101010010001100100 J
b1011010100000100 I
b10000110111011001 H
b1011010100000100 c
b10000110111011001 b
b10000110111011001 \
b100 g
b10 d
b0 e
b10000110111011001 "
b10000110111011001 Z
b10000110111011001 h
1)
#610000
0)
#615000
b0 ]
b0 J
b0 I
b0 H
b0 c
b0 b
r1 m
r1 n
r1.46162897340929e-07 l
r1.054092407226562 k
b10000110111011001 W
b0 g
1#
1!
1)
#620000
b10000000000000000 Y
1+
b10000000000000000 '
r1 X
0)
#625000
b111111 _
b11111111111111111111111111111111 4
13
b10000000000000000 2
b1 g
b10000000000000000 f
0#
0!
1)
#630000
0+
0)
#635000
b1101010000010011 H
b1000000000000000 U
b1000000000000000 V
b1101010000010011 b
b0 _
b11111111111111111111111111111111 4
13
b1000000000000000 2
b10 g
b1000000000000000 f
b111111 a
1)
#640000
0)
#645000
b11111111111111101 ]
b111111111111111010111010001010001 J
b10110101000001001 I
b10110101000001001 H
b10110101000001001 c
b10110101000001001 b
b10110101000001001 \
b0 d
b11 g
b10110101000001001 "
b10110101000001001 Z
b10110101000001001 h
b10110101000001001 U
b0 V
1)
#650000
0)
#655000
b111111111111111 ]
b1111111111111110100000000000000 J
b11111111111111101 I
b100000000000000 H
b11111111111111101 c
b100000000000000 b
b1 e
b11111111111111101 i
1)
#660000
0)
#665000
b10110101000001010 ]
b101101010000010100110101000001001 J
b10000000000000001 I
b10110101000001001 H
b11000000000000000 U
b111111111111111 V
b10000000000000001 c
b10110101000001001 b
b10 e
b111111111111111 i
1)
#670000
0)
#675000
b100000000000000000 ]
b1000000000000000000100100001100100 J
b10110101000001010 I
b10110101000001010 H
b10110101000001010 c
b10110101000001010 b
b10110101000001010 \
b1 d
b0 e
b10110101000001010 "
b10110101000001010 Z
b10110101000001010 h
1)
#680000
0)
#685000
b1000000000000000 ]
b10000000000000000000000000000000 J
b100000000000000000 I
b100000000000000 H
b100000000000000000 c
b100000000000000 b
b1 e
b100000000000000000 i
1)
#690000
0)
#695000
b10110101000001010 ]
b101101010000010100000000000000000 J
b10000000000000000 I
b10110101000001010 H
b1000000000000000 V
b10000000000000000 c
b10110101000001010 b
b10 e
b1000000000000000 i
1)
#700000
0)
#705000
b1111111111111110 ]
b11111111111111101011101000101000 J
b1011010100000100 I
b1011010100000100 c
b10110101000001010 b
b100 g
b10 d
b0 e
1)
#710000
0)
#715000
b0 ]
b0 J
b0 I
b0 H
r0.5198752449100363 m
r3.7 n
r3.0517578125e-05 l
r0.999969482421875 k
b1111111111111110 W
b0 c
b0 b
b1111111111111110 \
b0 g
1#
1!
b1111111111111110 "
b1111111111111110 Z
b1111111111111110 h
1)
#720000
b111011001100110011 Y
1+
b111011001100110011 '
r3.7 X
0)
#725000
b111110 _
b11111111111111111111111111111111 4
13
b111011001100110011 2
b1 g
b111011001100110011 f
0#
0!
1)
#730000
0+
0)
#735000
b111111111111111 \
b101101000100001 ]
b1011010001000010000001100100100 J
b110110011001100 I
b1101010000010011 H
b111111 ^
b110110011001100 c
b1110110011001100 U
b1101010000010011 b
b0 _
b11111111111111111111111111111111 4
13
b1110110011001100 2
b10 g
b1110110011001100 f
b111110 a
1)
#740000
0)
#745000
b10010000011001101 ]
b100100000110011010000001001000000 J
b10000111111101000 I
b10000111111101000 H
b10000111111101000 c
b10000111111101000 b
b1000011111110100 \
b0 d
b11 g
b10000111111101000 "
b10000111111101000 Z
b10000111111101000 h
b10110101000001001 U
b101101000100001 V
1)
#750000
0)
#755000
b1000010110010001 ]
b10000101100100011000111110101110 J
b10010000011001101 I
b111011001100110 H
b10010000011001101 c
b111011001100110 b
b1 e
b10010000011001101 i
1)
#760000
0)
#765000
b10000100111111110 ]
b100001001111111100111010110011000 J
b1111101001101111 I
b10000111111101000 H
b11000000000000000 U
b1000010110010001 V
b1111101001101111 c
b10000111111101000 b
b10 e
b1000010110010001 i
1)
#770000
0)
#775000
b10001010001011111 ]
b100010100010111111101100000000100 J
b10000100111111110 I
b10000100111111110 H
b10000100111111110 c
b10000100111111110 b
b1000010011111111 \
b1 d
b0 e
b10000100111111110 "
b10000100111111110 Z
b10000100111111110 h
1)
#780000
0)
#785000
b111111111010001 ]
b1111111110100011110011111011010 J
b10001010001011111 I
b111011001100110 H
b10001010001011111 c
b111011001100110 b
b1 e
b10001010001011111 i
1)
#790000
0)
#795000
b10000101000101110 ]
b100001010001011101101010110100010 J
b10000000000101111 I
b10000100111111110 H
b111111111010001 V
b10000000000101111 c
b10000100111111110 b
b10 e
b111111111010001 i
1)
#800000
0)
#805000
b101111000011011 ]
b1011110000110110101011101011100 J
b1011010100000100 I
b1000010100010111 H
b1011010100000100 c
b1000010100010111 b
b1000010100010111 \
b100 g
b10 d
b0 e
b10000101000101110 "
b10000101000101110 Z
b10000101000101110 h
1)
#810000
0)
#815000
b0 ]
b0 J
b0 I
b0 H
r0.4152273992686998 m
r5.8 n
r6.957238401161803e-06 l
r0.5198822021484375 k
b1000010100010111 W
b0 c
b0 b
b100001010001011 \
b0 g
1#
1!
b1000010100010111 "
b1000010100010111 Z
b1000010100010111 h
1)
#820000
b1011100110011001101 Y
1+
b1011100110011001101 '
r5.8 X
0)
#825000
b111101 _
b11111111111111111111111111111111 4
13
b1011100110011001101 2
b1 g
b1011100110011001101 f
0#
0!
1)
#830000
0+
0)
#835000
b10111110110110 ]
b101111101101101111101001011011 J
b11100110011001 I
b1101010000010011 H
b11100110011001 c
b1011100110011001 U
b1000000000000000 V
b1101010000010011 b
b0 _
b11111111111111111111111111111111 4
13
b1011100110011001 2
b10 g
b1011100110011001 f
b111101 a
1)
#840000
0)
#845000
b11000000111101111 ]
b110000001111011111011011011101001 J
b10011101001010011 I
b10011101001010011 H
b10011101001010011 c
b10011101001010011 b
b1001110100101001 \
b0 d
b11 g
b10011101001010011 "
b10011101001010011 Z
b10011101001010011 h
b10110101000001001 U
b10111110110110 V
1)
#850000
0)
#855000
b1000101111100101 ]
b10001011111001010110111001110100 J
b11000000111101111 I
b101110011001100 H
b11000000111101111 c
b101110011001100 b
b1 e
b11000000111101111 i
1)
#860000
0)
#865000
b10010101110111000 ]
b100101011101110000100001011000001 J
b1111010000011011 I
b10011101001010011 H
b11000000000000000 U
b1000101111100101 V
b1111010000011011 c
b10011101001010011 b
b10 e
b1000101111100101 i
1)
#870000
0)
#875000
b10101111011100111 ]
b101011110111001110101010001000000 J
b10010101110111000 I
b10010101110111000 H
b10010101110111000 c
b10010101110111000 b
b1001010111011100 \
b1 d
b0 e
b10010101110111000 "
b10010101110111000 Z
b10010101110111000 h
1)
#880000
0)
#885000
b111111100110010 ]
b1111111001100101010010000010100 J
b10101111011100111 I
b101110011001100 H
b10101111011100111 c
b101110011001100 b
b1 e
b10101111011100111 i
1)
#890000
0)
#895000
b10010110010101001 ]
b100101100101010010010111000010000 J
b10000000011001110 I
b10010101110111000 H
b111111100110010 V
b10000000011001110 c
b10010101110111000 b
b10 e
b111111100110010 i
1)
#900000
0)
#905000
b110101001001011 ]
b1101010010010111011110101010000 J
b1011010100000100 I
b1001011001010100 H
b1011010100000100 c
b1001011001010100 b
b1001011001010100 \
b100 g
b10 d
b0 e
b10010110010101001 "
b10010110010101001 Z
b10010110010101001 h
1)
#910000
0)
#915000
b0 ]
b0 J
b0 I
b0 H
r0.8164965809277261 m
r1.5 n
r2.049008901233718e-05 l
r0.4152069091796875 k
b110101001001011 W
b0 c
b0 b
b11010100100101 \
b0 g
1#
1!
b110101001001011 "
b110101001001011 Z
b110101001001011 h
1)
#920000
b11000000000000000 Y
1+
b11000000000000000 '
r1.5 X
0)
#925000
b111111 _
b11111111111111111111111111111111 4
13
b11000000000000000 2
b1 g
b11000000000000000 f
0#
0!
1)
#930000
0+
0)
#935000
b110101001001011 \
b11010100000100 ]
b110101000001001100000000000000 J
b100000000000000 I
b1101010000010011 H
b0 ^
b100000000000000 c
b1100000000000000 U
b1000000000000000 V
b1101010000010011 b
b0 _
b11111111111111111111111111111111 4
13
b1100000000000000 2
b10 g
b1100000000000000 f
b111111 a
1)
#940000
0)
#945000
b10111010100000101 ]
b101110101000001010001001000011001 J
b10011010100000101 I
b10011010100000101 H
b10011010100000101 c
b10011010100000101 b
b10011010100000101 \
b0 d
b11 g
b10011010100000101 "
b10011010100000101 Z
b10011010100000101 h
b10110101000001001 U
b11010100000100 V
1)
#950000
0)
#955000
b1000101111100001 ]
b10001011111000011110000000000000 J
b10111010100000101 I
b110000000000000 H
b10111010100000101 c
b110000000000000 b
b1 e
b10111010100000101 i
1)
#960000
0)
#965000
b10010011010101110 ]
b100100110101011100010111110011011 J
b1111010000011111 I
b10011010100000101 H
b11000000000000000 U
b1000101111100001 V
b1111010000011111 c
b10011010100000101 b
b10 e
b1000101111100001 i
1)
#970000
0)
#975000
b10101001100110100 ]
b101010011001101000001111001000100 J
b10010011010101110 I
b10010011010101110 H
b10010011010101110 c
b10010011010101110 b
b10010011010101110 \
b1 d
b0 e
b10010011010101110 "
b10010011010101110 Z
b10010011010101110 h
1)
#980000
0)
#985000
b111111100110011 ]
b1111111001100111000000000000000 J
b10101001100110100 I
b110000000000000 H
b10101001100110100 c
b110000000000000 b
b1 e
b10101001100110100 i
1)
#990000
0)
#995000
b10010011110011001 ]
b100100111100110011111100101010110 J
b10000000011001101 I
b10010011010101110 H
b111111100110011 V
b10000000011001101 c
b10010011010101110 b
b10 e
b111111100110011 i
1)
#1000000
0)
#1005000
b1101000100000011 ]
b11010001000000111100101101100100 J
b1011010100000100 I
b10010011110011001 H
b1011010100000100 c
b10010011110011001 b
b10010011110011001 \
b100 g
b10 d
b0 e
b10010011110011001 "
b10010011110011001 Z
b10010011110011001 h
1)
#1010000
0)
#1015000
b0 ]
b0 J
b0 I
b0 H
r0.3806934938134405 m
r6.9 n
r4.455456053864548e-05 l
r0.8164520263671875 k
b1101000100000011 W
b0 c
b0 b
b1101000100000011 \
b0 g
1#
1!
b1101000100000011 "
b1101000100000011 Z
b1101000100000011 h
1)
#1020000
b1101110011001100110 Y
1+
b1101110011001100110 '
r6.9 X
0)
#1025000
b111101 _
b11111111111111111111111111111111 4
13
b1101110011001100110 2
b1 g
b1101110011001100110 f
0#
0!
1)
#1030000
0+
0)
#1035000
b110100010000001 \
b100110011011111 ]
b1001100110111111101001100100100 J
b101110011001100 I
b1101010000010011 H
b111111 ^
b101110011001100 c
b1101110011001100 U
b1000000000000000 V
b1101010000010011 b
b0 _
b11111111111111111111111111111111 4
13
b1101110011001100 2
b10 g
b1101110011001100 f
b111101 a
1)
#1040000
0)
#1045000
b10011110110100110 ]
b100111101101001101000101011100100 J
b10001110100101010 I
b10001110100101010 H
b10001110100101010 c
b10001110100101010 b
b1000111010010101 \
b0 d
b11 g
b10001110100101010 "
b10001110100101010 Z
b10001110100101010 h
b10110101000001001 U
b100110011011111 V
1)
#1050000
0)
#1055000
b1000100011111011 ]
b10001000111110111110010000100100 J
b10011110110100110 I
b110111001100110 H
b10011110110100110 c
b110111001100110 b
b1 e
b10011110110100110 i
1)
#1060000
0)
#1065000
b10001001100101001 ]
b100010011001010010001011111010010 J
b1111011100000101 I
b10001110100101010 H
b11000000000000000 U
b1000100011111011 V
b1111011100000101 c
b10001110100101010 b
b10 e
b1000100011111011 i
1)
#1070000
0)
#1075000
b10010011111000001 ]
b100100111110000010001110010010001 J
b10001001100101001 I
b10001001100101001 H
b10001001100101001 c
b10001001100101001 b
b1000100110010100 \
b1 d
b0 e
b10001001100101001 "
b10001001100101001 Z
b10001001100101001 h
1)
#1080000
0)
#1085000
b111111110001010 ]
b1111111100010101100010011100110 J
b10010011111000001 I
b110111001100110 H
b10010011111000001 c
b110111001100110 b
b1 e
b10010011111000001 i
1)
#1090000
0)
#1095000
b10001001110100111 ]
b100010011101001111101010011100110 J
b10000000001110110 I
b10001001100101001 H
b111111110001010 V
b10000000001110110 c
b10001001100101001 b
b10 e
b111111110001010 i
1)
#1100000
0)
#1105000
b110000101110100 ]
b1100001011101000101011001001100 J
b1011010100000100 I
b1000100111010011 H
b1011010100000100 c
b1000100111010011 b
b1000100111010011 \
b100 g
b10 d
b0 e
b10001001110100111 "
b10001001110100111 Z
b10001001110100111 h
1)
#1110000
0)
#1115000
b0 ]
b0 J
b0 I
b0 H
r1.722428219047556e-05 l
r0.38067626953125 k
b110000101110100 W
b0 c
b0 b
b11000010111010 \
b0 g
1#
1!
b110000101110100 "
b110000101110100 Z
b110000101110100 h
1)
