testfile/ray_generator_folded.vcd
$date
	Tue Mar 10 12:37:06 2026
$end
$version
	Icarus Verilog
$end
$timescale
	1ps
$end
$scope module ray_generator_folded_tb $end
$var wire 1 ! valid_out $end
$var wire 1 " ready_out $end
$var wire 66 # ray_direction_out [65:0] $end
$var parameter 32 $ H_BITS $end
$var parameter 32 % V_BITS $end
$var reg 66 & cam_forward_in [65:0] $end
$var reg 1 ' clk_in $end
$var reg 22 ( hcount_fp_in [21:0] $end
$var reg 9 ) hcount_in [8:0] $end
$var reg 1 * rst_in $end
$var reg 1 + valid_in $end
$var reg 22 , vcount_fp_in [21:0] $end
$var reg 9 - vcount_in [8:0] $end
$var real 1 . length_sq $end
$var real 1 / rd_x $end
$var real 1 0 rd_y $end
$var real 1 1 rd_z $end
$scope function fp_abs $end
$var reg 22 2 a [21:0] $end
$upscope $end
$scope function fp_add $end
$var reg 22 3 a [21:0] $end
$var reg 22 4 b [21:0] $end
$upscope $end
$scope function fp_apply_sign $end
$var reg 22 5 a [21:0] $end
$var reg 22 6 b [21:0] $end
$upscope $end
$scope function fp_count_leading_zeros $end
$var reg 22 7 a [21:0] $end
$var reg 1 8 found $end
$var integer 32 9 i [31:0] $end
$upscope $end
$scope function fp_floor $end
$var reg 22 : a [21:0] $end
$var reg 22 ; out [21:0] $end
$upscope $end
$scope function fp_fract $end
$var reg 22 < a [21:0] $end
$upscope $end
$scope function fp_from_real $end
$var real 1 = val $end
$upscope $end
$scope function fp_gt $end
$var reg 22 > a [21:0] $end
$var reg 22 ? b [21:0] $end
$upscope $end
$scope function fp_inv_sqrt $end
$var reg 22 @ a [21:0] $end
$var real 1 A r_a $end
$var real 1 B r_inv $end
$upscope $end
$scope function fp_lt $end
$var reg 22 C a [21:0] $end
$var reg 22 D b [21:0] $end
$upscope $end
$scope function fp_max $end
$var reg 22 E a [21:0] $end
$var reg 22 F b [21:0] $end
$upscope $end
$scope function fp_min $end
$var reg 22 G a [21:0] $end
$var reg 22 H b [21:0] $end
$upscope $end
$scope function fp_mod $end
$var reg 22 I a [21:0] $end
$var reg 22 J b [21:0] $end
$var reg 44 K div [43:0] $end
$var reg 22 L quotient [21:0] $end
$upscope $end
$scope function fp_mul $end
$var reg 22 M a [21:0] $end
$var reg 22 N b [21:0] $end
$var reg 44 O temp_result [43:0] $end
$upscope $end
$scope function fp_mul_2 $end
$var reg 22 P a [21:0] $end
$upscope $end
$scope function fp_mul_3 $end
$var reg 22 Q a [21:0] $end
$upscope $end
$scope function fp_mul_4 $end
$var reg 22 R a [21:0] $end
$upscope $end
$scope function fp_mul_5 $end
$var reg 22 S a [21:0] $end
$upscope $end
$scope function fp_mul_6 $end
$var reg 22 T a [21:0] $end
$upscope $end
$scope function fp_mul_7 $end
$var reg 22 U a [21:0] $end
$upscope $end
$scope function fp_mul_8 $end
$var reg 22 V a [21:0] $end
$upscope $end
$scope function fp_mul_half $end
$var reg 22 W a [21:0] $end
$upscope $end
$scope function fp_neg $end
$var reg 22 X a [21:0] $end
$upscope $end
$scope function fp_sign $end
$var reg 22 Y a [21:0] $end
$upscope $end
$scope function fp_sub $end
$var reg 22 Z a [21:0] $end
$var reg 22 [ b [21:0] $end
$upscope $end
$scope function fp_to_real $end
$var reg 22 \ a [21:0] $end
$upscope $end
$scope function make_vec3 $end
$upscope $end
$scope function vec3_abs $end
$upscope $end
$scope function vec3_add $end
$upscope $end
$scope function vec3_apply_sign $end
$upscope $end
$scope function vec3_cross $end
$upscope $end
$scope function vec3_dot $end
$upscope $end
$scope function vec3_floor $end
$upscope $end
$scope function vec3_fract $end
$upscope $end
$scope function vec3_from_reals $end
$scope begin $unm_blk_52 $end
$upscope $end
$upscope $end
$scope function vec3_max $end
$upscope $end
$scope function vec3_min $end
$upscope $end
$scope function vec3_modded $end
$upscope $end
$scope function vec3_neg $end
$upscope $end
$scope function vec3_normed $end
$upscope $end
$scope function vec3_scaled $end
$upscope $end
$scope function vec3_scaled_2 $end
$upscope $end
$scope function vec3_scaled_3 $end
$upscope $end
$scope function vec3_scaled_half $end
$upscope $end
$scope function vec3_sign $end
$upscope $end
$scope function vec3_sl $end
$upscope $end
$scope function vec3_sr $end
$upscope $end
$scope function vec3_step $end
$upscope $end
$scope function vec3_sub $end
$upscope $end
$scope module uut $end
$var wire 66 ] cam_forward_in [65:0] $end
$var wire 1 ' clk_in $end
$var wire 22 ^ hcount_fp_in [21:0] $end
$var wire 9 _ hcount_in [8:0] $end
$var wire 1 * rst_in $end
$var wire 1 + valid_in $end
$var wire 22 ` vcount_fp_in [21:0] $end
$var wire 9 a vcount_in [8:0] $end
$var wire 22 b rd1_z [21:0] $end
$var wire 22 c rd1_y [21:0] $end
$var wire 22 d rd1_x [21:0] $end
$var wire 22 e rd1_dot [21:0] $end
$var wire 22 f mult3_res [21:0] $end
$var wire 22 g mult2_res [21:0] $end
$var wire 22 h mult1_res [21:0] $end
$var wire 1 i fisf_valid_out $end
$var wire 22 j fisf_res_out [21:0] $end
$var wire 1 k fisf_ready_out $end
$var wire 22 l cu_z [21:0] $end
$var wire 22 m cu_y [21:0] $end
$var wire 22 n cu_x [21:0] $end
$var wire 22 o cr_z [21:0] $end
$var wire 22 p cr_y [21:0] $end
$var wire 22 q cr_x [21:0] $end
$var wire 22 r cf_z [21:0] $end
$var wire 22 s cf_y [21:0] $end
$var wire 22 t cf_x [21:0] $end
$var wire 66 u _rd1 [65:0] $end
$var wire 66 v _rd0 [65:0] $end
$var parameter 32 w DISPLAY_HEIGHT $end
$var parameter 32 x DISPLAY_WIDTH $end
$var parameter 32 y H_BITS $end
$var parameter 32 z V_BITS $end
$var reg 66 { cam_forward [65:0] $end
$var reg 66 | cam_right [65:0] $end
$var reg 66 } cam_up [65:0] $end
$var reg 1 ~ fisf_valid_in $end
$var reg 9 !" hcount [8:0] $end
$var reg 22 "" mult1_a [21:0] $end
$var reg 22 #" mult1_b [21:0] $end
$var reg 22 $" mult2_a [21:0] $end
$var reg 22 %" mult2_b [21:0] $end
$var reg 22 &" mult3_a [21:0] $end
$var reg 22 '" mult3_b [21:0] $end
$var reg 22 (" px [21:0] $end
$var reg 22 )" py [21:0] $end
$var reg 66 *" ray_direction_out [65:0] $end
$var reg 66 +" rd1 [65:0] $end
$var reg 1 " ready_out $end
$var reg 66 ," scaled_right [65:0] $end
$var reg 66 -" scaled_up [65:0] $end
$var reg 4 ." stage [3:0] $end
$var reg 1 ! valid_out $end
$var reg 9 /" vcount [8:0] $end
$scope module fisf $end
$var wire 22 0" a_in [21:0] $end
$var wire 1 ' clk_in $end
$var wire 22 1" res_out [21:0] $end
$var wire 1 * rst_in $end
$var wire 22 2" slope [21:0] $end
$var wire 1 ~ valid_in $end
$var wire 22 3" x_shifted [21:0] $end
$var wire 22 4" mult1_res [21:0] $end
$var wire 6 5" final_shift [5:0] $end
$var wire 6 6" _diff [5:0] $end
$var parameter 32 7" MAX_NEWTON_ITER $end
$var reg 6 8" diff [5:0] $end
$var reg 22 9" mult1_a [21:0] $end
$var reg 22 :" mult1_b [21:0] $end
$var reg 3 ;" newton_iter [2:0] $end
$var reg 3 <" newton_iter_step [2:0] $end
$var reg 22 =" original [21:0] $end
$var reg 1 k ready_out $end
$var reg 4 >" stage [3:0] $end
$var reg 1 i valid_out $end
$var reg 22 ?" x [21:0] $end
$var reg 22 @" x_mult [21:0] $end
$upscope $end
$upscope $end
$scope task send_pixel $end
$var reg 66 A" fwd [65:0] $end
$var reg 9 B" h [8:0] $end
$var reg 22 C" hfp [21:0] $end
$var reg 9 D" v [8:0] $end
$var reg 22 E" vfp [21:0] $end
$upscope $end
$upscope $end
$enddefinitions $end
$comment Show the parameter values. $end
$dumpall
b10 7"
b1001 z
b1001 y
b110010000 x
b100101100 w
b1001 %
b1001 $
$end
#0
$dumpvars
bx E"
bx D"
bx C"
bx B"
bx A"
bx @"
bx ?"
bx >"
bx ="
bx <"
bx ;"
b0 :"
b0 9"
bx 8"
b10000 6"
bx 5"
b0 4"
bx 3"
b1101010000010011 2"
bx 1"
bx 0"
bx /"
bx ."
bx -"
bx ,"
bx +"
bx *"
bx )"
bx ("
bx '"
bx &"
bx %"
bx $"
bx #"
bx ""
bx !"
x~
bx }
bx |
bx {
bx v
bx u
bx t
bx s
bx r
bx q
bx p
bx o
bx n
bx m
bx l
xk
bx j
xi
bx h
bx g
bx f
bx e
bx d
bx c
bx b
bx a
bx `
bx _
bx ^
bx ]
bx \
bx [
bx Z
bx Y
bx X
bx W
bx V
bx U
bx T
bx S
bx R
bx Q
bx P
b0 O
b0 N
b0 M
bx L
bx K
bx J
bx I
bx H
bx G
bx F
bx E
bx D
bx C
r0 B
r0 A
bx @
bx ?
bx >
r0 =
bx <
bx ;
bx :
b11111111111111111111111111111111 9
08
bx 7
bx 6
bx 5
bx 4
bx 3
bx 2
r0 1
r0 0
r0 /
r0 .
bx -
bx ,
0+
0*
bx )
bx (
0'
bx &
bx #
x"
x!
$end
#5000
b0 f
b0 g
b0 h
b0 '"
b0 &"
b0 %"
b0 $"
b0 #"
b0 ""
1k
0i
b0 >"
0~
1"
0!
b0 ."
1*
1'
#10000
0'
#15000
0*
1'
#20000
0'
#25000
1'
#30000
0'
#35000
1'
#40000
0'
#45000
b10000000000000000 A"
r1 =
b0 E"
b0 C"
b10001100 D"
b10010110 B"
1'
#50000
0'
#55000
b10000000000000000 g
b100000000000000000000000000000000 O
b10000000000000000 N
b10000000000000000 M
b10000000000000000 %"
b10000000000000000 $"
b0 X
b10000000000000000 4
b0 t
b0 s
b10000000000000000 r
b1 ."
b0 )"
b0 ("
b10000000000000000 {
b10001100 /"
b10010110 !"
0"
1+
b10000000000000000 &
b10000000000000000 ]
b0 ,
b0 `
b0 (
b0 ^
b10001100 -
b10001100 a
b10010110 )
b10010110 _
1'
#60000
0'
#65000
b0 g
b0 O
b10000000000000000 N
b0 M
b10000000000000000 #"
b0 %"
b0 $"
b10000000000000000 m
b0 n
b10000000000000000 q
b0 p
b0 o
b10 ."
b10000000000000000xxxxxxxxxxxxxxxxxxxxxx }
b1000000000000000000000000000000000000000000000000000000000000 |
0+
b10000000000000000 3
b0 4
1'
#70000
0'
#75000
b0 N
b10000000000000000 M
b10000000000000000 ""
b0 #"
b0 l
b100 ."
b100000000000000000000000000000000000000 }
1'
#80000
0'
#85000
b10000000000000000 M
b10000000000000000 $"
b0 ""
b0 3
bx 4
b111 ."
b0 ,"
1'
#90000
0'
#95000
b0 M
b0 $"
b101 ."
b10000000000000000 u
b0 v
b10000000000000000 4
b0 -"
1'
#100000
0'
#105000
bx f
bx g
bx h
bx '"
b10000000000000000 &"
bx %"
bx #"
b10000000000000000 e
b10000000000000000 0"
bx O
b10000000000000000 M
bx N
b0 d
b0 c
b10000000000000000 b
b110 ."
1~
b10000000000000000 +"
1'
#110000
0'
#115000
b111111 6"
18
b11111111111111111111111111111111 9
b10000000000000000 7
0~
b1 >"
b10000000000000000 ="
0k
1'
#120000
0'
#125000
b0 O
b0 N
b1101010000010011 M
b0 5"
b1000000000000000 Z
b1000000000000000 [
b1101010000010011 9"
b0 6"
b11111111111111111111111111111111 9
18
b1000000000000000 7
b10 >"
b1000000000000000 ="
b111111 8"
1'
#130000
0'
#135000
b11111111111111101 4"
b10110101000001001 f
b111111111111111010111010001010001 O
b0 g
b0 h
b10110101000001001 N
b10110101000001001 M
b10110101000001001 :"
b10110101000001001 9"
b10110101000001001 3"
b10110101000001001 '"
b10000000000000000 &"
b10110101000001001 %"
b10110101000001001 #"
b0 <"
b0 ;"
b11 >"
b10110101000001001 j
b10110101000001001 1"
b10110101000001001 ?"
b10110101000001001 Z
b0 [
1'
#140000
0'
#145000
b111111111111111 4"
b1111111111111110100000000000000 O
b11111111111111101 N
b100000000000000 M
b11111111111111101 :"
b100000000000000 9"
b1 <"
b11111111111111101 @"
1'
#150000
0'
#155000
b10110101000001010 4"
b101101010000010100110101000001001 O
b10000000000000001 N
b10110101000001001 M
b11000000000000000 Z
b111111111111111 [
b10000000000000001 :"
b10110101000001001 9"
b10 <"
b111111111111111 @"
1'
#160000
0'
#165000
b100000000000000000 4"
b10110101000001010 f
b1000000000000000000100100001100100 O
b10110101000001010 N
b10110101000001010 M
b10110101000001010 :"
b10110101000001010 9"
b10110101000001010 3"
b10110101000001010 '"
b10000000000000000 &"
b10110101000001010 %"
b10110101000001010 #"
b1 ;"
b0 <"
b10110101000001010 j
b10110101000001010 1"
b10110101000001010 ?"
1'
#170000
0'
#175000
b1000000000000000 4"
b10000000000000000000000000000000 O
b100000000000000000 N
b100000000000000 M
b100000000000000000 :"
b100000000000000 9"
b1 <"
b100000000000000000 @"
1'
#180000
0'
#185000
b10110101000001010 4"
b101101010000010100000000000000000 O
b10000000000000000 N
b10110101000001010 M
b1000000000000000 [
b10000000000000000 :"
b10110101000001010 9"
b10 <"
b1000000000000000 @"
1'
#190000
0'
#195000
b1111111111111110 4"
b11111111111111101011101000101000 O
b1011010100000100 N
b1011010100000100 :"
b10110101000001010 9"
b100 >"
b10 ;"
b0 <"
1'
#200000
0'
#205000
b0 4"
b1111111111111110 f
b0 O
b0 N
b0 M
b0 :"
b0 9"
b1111111111111110 3"
b1111111111111110 '"
b10000000000000000 &"
b1111111111111110 %"
b1111111111111110 #"
b0 >"
1k
1i
b1111111111111110 j
b1111111111111110 1"
b1111111111111110 ?"
1'
#210000
0'
#215000
b0 f
b0 '"
b0 &"
b0 %"
b0 #"
b0 ."
1"
1!
b1111111111111110 #
b1111111111111110 *"
0i
1'
#220000
0'
#225000
0!
b1111110000000000000000 E"
b1111101010101110000101 C"
r1 =
b0 D"
b0 B"
r0.9999389657750726 .
r0.999969482421875 1
b1111111111111110 \
1'
#230000
0'
#235000
b10000000000000000 g
b100000000000000000000000000000000 O
b10000000000000000 N
b10000000000000000 M
b10000000000000000 %"
b10000000000000000 $"
b1 ."
b1111110000000000000000 )"
b1111101010101110000101 ("
b0 /"
b0 !"
0"
1+
b1111110000000000000000 ,
b1111110000000000000000 `
b1111101010101110000101 (
b1111101010101110000101 ^
b0 -
b0 a
b0 )
b0 _
1'
#240000
0'
#245000
b0 g
b0 O
b10000000000000000 N
b0 M
b10000000000000000 #"
b0 %"
b0 $"
b10 ."
0+
b10000000000000000 3
b0 4
1'
#250000
0'
#255000
b1111101010101110000101 h
b0 O
b1111101010101110000101 N
b0 M
b1111101010101110000101 '"
b1111101010101110000101 %"
b10000000000000000 ""
b1111101010101110000101 #"
b100 ."
1'
#260000
0'
#265000
b1111110000000000000000 g
b0 O
b0 M
b0 h
b1111110000000000000000 N
b111110101010111000010100000000000000000000000000010000000000000000 u
b10000000000000000 4
b10000000000000000 $"
b1111110000000000000000 '"
b1111110000000000000000 %"
b1111110000000000000000 #"
b0 ""
b111110101010111000010100000000000000000000000000000000000000000000 v
b0 3
b111 ."
b111110101010111000010100000000000000000000000000000000000000000000 ,"
1'
#270000
0'
#275000
b0 g
b0 N
b0 '"
b0 %"
b0 $"
b0 #"
b101 ."
b111110101010111000010111111100000000000000000000010000000000000000 u
b111110101010111000010111111100000000000000000000000000000000000000 v
b0 3
b10000000000000000 4
b11111100000000000000000000000000000000000000 -"
1'
#280000
0'
#285000
b1111111111111110 f
b1111110000000000000010 g
b1111101010101110000111 h
b1111111111111110 '"
b10000000000000000 &"
b1111111111111110 %"
b1111110000000000000000 $"
b1111111111111110 #"
b1111101010101110000101 ""
b111100010011010110 e
b111100010011010110 0"
b100000000000000000 4
b11100010011010110 3
b11111111111111100000000000000000 O
b10000000000000000 M
b1111111111111110 N
b1111101010101110000101 d
b1111110000000000000000 c
b110 ."
1~
b111110101010111000010111111100000000000000000000010000000000000000 +"
1'
#290000
0'
#295000
b111110 6"
b11111111111111111111111111111111 9
18
b111100010011010110 7
0~
b1 >"
b111100010011010110 ="
0k
1'
#300000
0'
#305000
b111111111111111 3"
b101110111001000 4"
b1011101110010000100101011101111 O
b111000100110101 N
b1101010000010011 M
b111111 5"
b111000100110101 :"
b1111000100110101 Z
b1101010000010011 9"
b0 6"
b11111111111111111111111111111111 9
18
b1111000100110101 7
b10 >"
b1111000100110101 ="
b111110 8"
1'
#310000
0'
#315000
b10001100100011000 4"
b10000110001000001 f
b1111101111001110111111 g
b1111101001101100111000 h
b100011001000110000010100010000001 O
b10000110001000001 N
b10000110001000001 M
b10000110001000001 :"
b10000110001000001 9"
b1000011000100000 3"
b10000110001000001 '"
b10000000000000000 &"
b10000110001000001 %"
b1111110000000000000000 $"
b10000110001000001 #"
b1111101010101110000101 ""
b0 ;"
b11 >"
b10000110001000001 j
b10000110001000001 1"
b10000110001000001 ?"
b10110101000001001 Z
b101110111001000 [
1'
#320000
0'
#325000
b1000010001101100 4"
b10000100011011000101100001110000 O
b10001100100011000 N
b111100010011010 M
b10001100100011000 :"
b111100010011010 9"
b1 <"
b10001100100011000 @"
1'
#330000
0'
#335000
b10000011110011110 4"
b100000111100111101101000010010100 O
b1111101110010100 N
b10000110001000001 M
b11000000000000000 Z
b1000010001101100 [
b1111101110010100 :"
b10000110001000001 9"
b10 <"
b1000010001101100 @"
1'
#340000
0'
#345000
b10000111101110110 4"
b10000011110011110 f
b1111101111100001100010 g
b1111101010000101100011 h
b100001111011101100000010110000100 O
b10000011110011110 N
b10000011110011110 M
b10000011110011110 :"
b10000011110011110 9"
b1000001111001111 3"
b10000011110011110 '"
b10000000000000000 &"
b10000011110011110 %"
b1111110000000000000000 $"
b10000011110011110 #"
b1111101010101110000101 ""
b1 ;"
b0 <"
b10000011110011110 j
b10000011110011110 1"
b10000011110011110 ?"
1'
#350000
0'
#355000
b111111111100010 4"
b1111111111000101001110011111100 O
b10000111101110110 N
b111100010011010 M
b10000111101110110 :"
b111100010011010 9"
b1 <"
b10000111101110110 @"
1'
#360000
0'
#365000
b10000011110111100 4"
b100000111101111001110010010000100 O
b10000000000011110 N
b10000011110011110 M
b111111111100010 [
b10000000000011110 :"
b10000011110011110 9"
b10 <"
b111111111100010 @"
1'
#370000
0'
#375000
b101110100111110 4"
b10000011110111100 f
b1111101111100001000100 g
b1111101010000100111011 h
b1011101001111100000010101111000 O
b1011010100000100 N
b1000001111011110 M
b1011010100000100 :"
b1000001111011110 9"
b1000001111011110 3"
b10000011110111100 '"
b10000000000000000 &"
b10000011110111100 %"
b1111110000000000000000 $"
b10000011110111100 #"
b1111101010101110000101 ""
b100 >"
b10 ;"
b0 <"
b10000011110111100 j
b10000011110111100 1"
b10000011110111100 ?"
1'
#380000
0'
#385000
b0 4"
b1000001111011110 f
b1111110111110000100010 g
b1111110101000010011101 h
b0 O
b0 N
b0 M
b0 :"
b0 9"
b100000111101111 3"
b1000001111011110 '"
b10000000000000000 &"
b1000001111011110 %"
b1111110000000000000000 $"
b1000001111011110 #"
b1111101010101110000101 ""
b0 >"
1k
1i
b1000001111011110 j
b1000001111011110 1"
b1000001111011110 ?"
1'
#390000
0'
#395000
b0 f
b0 g
b0 h
b0 '"
b0 &"
b0 %"
b0 $"
b0 #"
b0 ""
b0 ."
1"
1!
b111111010100001001110100000010000011110111100000001000001111011110 #
b111111010100001001110100000010000011110111100000001000001111011110 *"
0i
b1111110111110000100010 X
1'
#400000
0'
#405000
0!
b1000000000000000000000000000000000000000000000000000000000000 A"
b0 E"
b0 C"
r0 =
b10001100 D"
b10010110 B"
r1.000036794925109 .
r0.515106201171875 1
r0.515106201171875 0
r-0.6851043701171875 /
b1000001111011110 \
1'
#410000
0'
#415000
b10000000000000000 f
b100000000000000000000000000000000 O
b10000000000000000 M
b10000000000000000 N
b10000000000000000 '"
b10000000000000000 &"
b1111110000000000000000 #"
b10000000000000000 X
b111111101010111000010111111100000000000000000000000000000000000000 u
b0 3
b0 4
b10000000000000000 t
b0 r
b1 ."
b0 )"
b0 ("
b1000000000000000000000000000000000000000000000000000000000000 {
b10001100 /"
b10010110 !"
0"
1+
b1000000000000000000000000000000000000000000000000000000000000 &
b1000000000000000000000000000000000000000000000000000000000000 ]
b0 ,
b0 `
b0 (
b0 ^
b10001100 -
b10001100 a
b10010110 )
b10010110 _
1'
#420000
0'
#425000
b0 f
b0 O
b0 N
b0 M
b0 '"
b0 &"
b0 #"
b0 q
b1111110000000000000000 o
b10 ."
b1111110000000000000000 |
0+
b10000000000000000 4
1'
#430000
0'
#435000
b1111110000000000000000 M
b1111110000000000000000 &"
b100 ."
b0 X
1'
#440000
0'
#445000
b10000000000000000 M
b1000000000000000011111100000000000000000000000000000000000000 u
b0 3
b10000000000000000 $"
b0 &"
b11111100000000000000000000000000000000000000 v
b0 4
b111 ."
b0 ,"
1'
#450000
0'
#455000
b0 M
b0 $"
b101 ."
b1000000000000000000000000000000000000000000000000000000000000 u
b0 4
b0 v
b0 -"
1'
#460000
0'
#465000
b1000001111011110 h
b1000001111011110 '"
b1000001111011110 %"
b1000001111011110 #"
b10000000000000000 ""
b10000000000000000 e
b10000000000000000 0"
b10000000000000000 3
b0 O
b0 M
b1000001111011110 N
b10000000000000000 d
b0 c
b0 b
b110 ."
1~
b1000000000000000000000000000000000000000000000000000000000000 +"
1'
#470000
0'
#475000
b111111 6"
b11111111111111111111111111111111 9
18
b10000000000000000 7
0~
b1 >"
b10000000000000000 ="
0k
1'
#480000
0'
#485000
b1000001111011110 3"
b0 N
b1101010000010011 M
b0 5"
b1000000000000000 Z
b1000000000000000 [
b1101010000010011 9"
b0 6"
b11111111111111111111111111111111 9
18
b1000000000000000 7
b10 >"
b1000000000000000 ="
b111111 8"
1'
#490000
0'
#495000
b11111111111111101 4"
b10110101000001001 h
b111111111111111010111010001010001 O
b10110101000001001 N
b10110101000001001 M
b10110101000001001 :"
b10110101000001001 9"
b10110101000001001 3"
b10110101000001001 '"
b10110101000001001 %"
b10110101000001001 #"
b10000000000000000 ""
b0 ;"
b11 >"
b10110101000001001 j
b10110101000001001 1"
b10110101000001001 ?"
b10110101000001001 Z
b0 [
1'
#500000
0'
#505000
b111111111111111 4"
b1111111111111110100000000000000 O
b11111111111111101 N
b100000000000000 M
b11111111111111101 :"
b100000000000000 9"
b1 <"
b11111111111111101 @"
1'
#510000
0'
#515000
b10110101000001010 4"
b101101010000010100110101000001001 O
b10000000000000001 N
b10110101000001001 M
b11000000000000000 Z
b111111111111111 [
b10000000000000001 :"
b10110101000001001 9"
b10 <"
b111111111111111 @"
1'
#520000
0'
#525000
b100000000000000000 4"
b10110101000001010 h
b1000000000000000000100100001100100 O
b10110101000001010 N
b10110101000001010 M
b10110101000001010 :"
b10110101000001010 9"
b10110101000001010 3"
b10110101000001010 '"
b10110101000001010 %"
b10110101000001010 #"
b10000000000000000 ""
b1 ;"
b0 <"
b10110101000001010 j
b10110101000001010 1"
b10110101000001010 ?"
1'
#530000
0'
#535000
b1000000000000000 4"
b10000000000000000000000000000000 O
b100000000000000000 N
b100000000000000 M
b100000000000000000 :"
b100000000000000 9"
b1 <"
b100000000000000000 @"
1'
#540000
0'
#545000
b10110101000001010 4"
b101101010000010100000000000000000 O
b10000000000000000 N
b10110101000001010 M
b1000000000000000 [
b10000000000000000 :"
b10110101000001010 9"
b10 <"
b1000000000000000 @"
1'
#550000
0'
#555000
b1111111111111110 4"
b11111111111111101011101000101000 O
b1011010100000100 N
b1011010100000100 :"
b10110101000001010 9"
b100 >"
b10 ;"
b0 <"
1'
#560000
0'
#565000
b0 4"
b1111111111111110 h
b0 O
b0 N
b0 M
b0 :"
b0 9"
b1111111111111110 3"
b1111111111111110 '"
b1111111111111110 %"
b1111111111111110 #"
b10000000000000000 ""
b0 >"
1k
1i
b1111111111111110 j
b1111111111111110 1"
b1111111111111110 ?"
1'
#570000
0'
#575000
b0 h
b0 '"
b0 %"
b0 #"
b0 ""
b0 ."
1"
1!
b111111111111111000000000000000000000000000000000000000000000 #
b111111111111111000000000000000000000000000000000000000000000 *"
0i
1'
#580000
0'
#585000
0!
r0.9999389657750726 .
r0 1
r0 0
r0.999969482421875 /
b0 \
1'
