testfile/sdf_query.vcd
$date
	Tue Mar 10 12:37:06 2026
$end
$version
	Icarus Verilog
$end
$timescale
	1ps
$end
$scope module sdf_query_tb $end
$var wire 6 ! sdf_wait_max_out [5:0] $end
$var wire 22 " sdf_out [21:0] $end
$var reg 1 # clk_in $end
$var reg 3 $ fractal_sel_in [2:0] $end
$var reg 66 % point_in [65:0] $end
$var reg 1 & rst_in $end
$scope function fp_abs $end
$var reg 22 ' a [21:0] $end
$upscope $end
$scope function fp_add $end
$var reg 22 ( a [21:0] $end
$var reg 22 ) b [21:0] $end
$upscope $end
$scope function fp_apply_sign $end
$var reg 22 * a [21:0] $end
$var reg 22 + b [21:0] $end
$upscope $end
$scope function fp_count_leading_zeros $end
$var reg 22 , a [21:0] $end
$var reg 1 - found $end
$var integer 32 . i [31:0] $end
$upscope $end
$scope function fp_floor $end
$var reg 22 / a [21:0] $end
$var reg 22 0 out [21:0] $end
$upscope $end
$scope function fp_fract $end
$var reg 22 1 a [21:0] $end
$upscope $end
$scope function fp_from_real $end
$var real 1 2 val $end
$upscope $end
$scope function fp_gt $end
$var reg 22 3 a [21:0] $end
$var reg 22 4 b [21:0] $end
$upscope $end
$scope function fp_inv_sqrt $end
$var reg 22 5 a [21:0] $end
$var real 1 6 r_a $end
$var real 1 7 r_inv $end
$upscope $end
$scope function fp_lt $end
$var reg 22 8 a [21:0] $end
$var reg 22 9 b [21:0] $end
$upscope $end
$scope function fp_max $end
$var reg 22 : a [21:0] $end
$var reg 22 ; b [21:0] $end
$upscope $end
$scope function fp_min $end
$var reg 22 < a [21:0] $end
$var reg 22 = b [21:0] $end
$upscope $end
$scope function fp_mod $end
$var reg 22 > a [21:0] $end
$var reg 22 ? b [21:0] $end
$var reg 44 @ div [43:0] $end
$var reg 22 A quotient [21:0] $end
$upscope $end
$scope function fp_mul $end
$var reg 22 B a [21:0] $end
$var reg 22 C b [21:0] $end
$var reg 44 D temp_result [43:0] $end
$upscope $end
$scope function fp_mul_2 $end
$var reg 22 E a [21:0] $end
$upscope $end
$scope function fp_mul_3 $end
$var reg 22 F a [21:0] $end
$upscope $end
$scope function fp_mul_4 $end
$var reg 22 G a [21:0] $end
$upscope $end
$scope function fp_mul_5 $end
$var reg 22 H a [21:0] $end
$upscope $end
$scope function fp_mul_6 $end
$var reg 22 I a [21:0] $end
$upscope $end
$scope function fp_mul_7 $end
$var reg 22 J a [21:0] $end
$upscope $end
$scope function fp_mul_8 $end
$var reg 22 K a [21:0] $end
$upscope $end
$scope function fp_mul_half $end
$var reg 22 L a [21:0] $end
$upscope $end
$scope function fp_neg $end
$var reg 22 M a [21:0] $end
$upscope $end
$scope function fp_sign $end
$var reg 22 N a [21:0] $end
$upscope $end
$scope function fp_sub $end
$var reg 22 O a [21:0] $end
$var reg 22 P b [21:0] $end
$upscope $end
$scope function fp_to_real $end
$var reg 22 Q a [21:0] $end
$upscope $end
$scope function make_vec3 $end
$upscope $end
$scope function sd_box_fast $end
$var reg 22 R halfExtents [21:0] $end
$var reg 66 S point [65:0] $end
$var reg 22 T px [21:0] $end
$var reg 22 U py [21:0] $end
$var reg 22 V pz [21:0] $end
$var reg 22 W x_abs [21:0] $end
$var reg 22 X xy_max [21:0] $end
$var reg 22 Y xyz_max [21:0] $end
$var reg 22 Z y_abs [21:0] $end
$var reg 22 [ z_abs [21:0] $end
$upscope $end
$scope function vec3_abs $end
$upscope $end
$scope function vec3_add $end
$upscope $end
$scope function vec3_apply_sign $end
$upscope $end
$scope function vec3_cross $end
$upscope $end
$scope function vec3_dot $end
$upscope $end
$scope function vec3_floor $end
$upscope $end
$scope function vec3_fract $end
$upscope $end
$scope function vec3_from_reals $end
$scope begin $unm_blk_52 $end
$upscope $end
$upscope $end
$scope function vec3_max $end
$upscope $end
$scope function vec3_min $end
$upscope $end
$scope function vec3_modded $end
$upscope $end
$scope function vec3_neg $end
$upscope $end
$scope function vec3_normed $end
$upscope $end
$scope function vec3_scaled $end
$upscope $end
$scope function vec3_scaled_2 $end
$upscope $end
$scope function vec3_scaled_3 $end
$upscope $end
$scope function vec3_scaled_half $end
$upscope $end
$scope function vec3_sign $end
$upscope $end
$scope function vec3_sl $end
$upscope $end
$scope function vec3_sr $end
$upscope $end
$scope function vec3_step $end
$upscope $end
$scope function vec3_sub $end
$upscope $end
$scope module uut $end
$var wire 1 # clk_in $end
$var wire 3 \ fractal_sel_in [2:0] $end
$var wire 66 ] point_in [65:0] $end
$var wire 1 & rst_in $end
$var wire 22 ^ sdf_out [21:0] $end
$var reg 6 _ sdf_wait_max_out [5:0] $end
$scope module f0 $end
$var wire 1 # clk_in $end
$var wire 66 ` point_in [65:0] $end
$var wire 1 & rst_in $end
$var wire 22 a sdf_out_ [21:0] $end
$var wire 66 b p4 [65:0] $end
$var wire 66 c p3 [65:0] $end
$var wire 66 d p2 [65:0] $end
$var wire 66 e p1 [65:0] $end
$var wire 22 f d3_ [21:0] $end
$var wire 22 g d2_ [21:0] $end
$var wire 22 h d1_ [21:0] $end
$var reg 22 i d1 [21:0] $end
$var reg 22 j d2 [21:0] $end
$var reg 22 k d3 [21:0] $end
$var reg 22 l sdf_out [21:0] $end
$scope function fp_abs $end
$var reg 22 m a [21:0] $end
$upscope $end
$scope function fp_add $end
$var reg 22 n a [21:0] $end
$var reg 22 o b [21:0] $end
$upscope $end
$scope function fp_apply_sign $end
$var reg 22 p a [21:0] $end
$var reg 22 q b [21:0] $end
$upscope $end
$scope function fp_count_leading_zeros $end
$var reg 22 r a [21:0] $end
$var reg 1 s found $end
$var integer 32 t i [31:0] $end
$upscope $end
$scope function fp_floor $end
$var reg 22 u a [21:0] $end
$var reg 22 v out [21:0] $end
$upscope $end
$scope function fp_fract $end
$var reg 22 w a [21:0] $end
$upscope $end
$scope function fp_from_real $end
$var real 1 x val $end
$upscope $end
$scope function fp_gt $end
$var reg 22 y a [21:0] $end
$var reg 22 z b [21:0] $end
$upscope $end
$scope function fp_inv_sqrt $end
$var reg 22 { a [21:0] $end
$var real 1 | r_a $end
$var real 1 } r_inv $end
$upscope $end
$scope function fp_lt $end
$var reg 22 ~ a [21:0] $end
$var reg 22 !" b [21:0] $end
$upscope $end
$scope function fp_max $end
$var reg 22 "" a [21:0] $end
$var reg 22 #" b [21:0] $end
$upscope $end
$scope function fp_min $end
$var reg 22 $" a [21:0] $end
$var reg 22 %" b [21:0] $end
$upscope $end
$scope function fp_mod $end
$var reg 22 &" a [21:0] $end
$var reg 22 '" b [21:0] $end
$var reg 44 (" div [43:0] $end
$var reg 22 )" quotient [21:0] $end
$upscope $end
$scope function fp_mul $end
$var reg 22 *" a [21:0] $end
$var reg 22 +" b [21:0] $end
$var reg 44 ," temp_result [43:0] $end
$upscope $end
$scope function fp_mul_2 $end
$var reg 22 -" a [21:0] $end
$upscope $end
$scope function fp_mul_3 $end
$var reg 22 ." a [21:0] $end
$upscope $end
$scope function fp_mul_4 $end
$var reg 22 /" a [21:0] $end
$upscope $end
$scope function fp_mul_5 $end
$var reg 22 0" a [21:0] $end
$upscope $end
$scope function fp_mul_6 $end
$var reg 22 1" a [21:0] $end
$upscope $end
$scope function fp_mul_7 $end
$var reg 22 2" a [21:0] $end
$upscope $end
$scope function fp_mul_8 $end
$var reg 22 3" a [21:0] $end
$upscope $end
$scope function fp_mul_half $end
$var reg 22 4" a [21:0] $end
$upscope $end
$scope function fp_neg $end
$var reg 22 5" a [21:0] $end
$upscope $end
$scope function fp_sign $end
$var reg 22 6" a [21:0] $end
$upscope $end
$scope function fp_sub $end
$var reg 22 7" a [21:0] $end
$var reg 22 8" b [21:0] $end
$upscope $end
$scope function fp_to_real $end
$var reg 22 9" a [21:0] $end
$upscope $end
$scope function make_vec3 $end
$upscope $end
$scope function mmp $end
$var reg 66 :" v [65:0] $end
$upscope $end
$scope function sd_box_fast $end
$var reg 22 ;" halfExtents [21:0] $end
$var reg 66 <" point [65:0] $end
$var reg 22 =" px [21:0] $end
$var reg 22 >" py [21:0] $end
$var reg 22 ?" pz [21:0] $end
$var reg 22 @" x_abs [21:0] $end
$var reg 22 A" xy_max [21:0] $end
$var reg 22 B" xyz_max [21:0] $end
$var reg 22 C" y_abs [21:0] $end
$var reg 22 D" z_abs [21:0] $end
$upscope $end
$scope function vec3_abs $end
$upscope $end
$scope function vec3_add $end
$upscope $end
$scope function vec3_apply_sign $end
$upscope $end
$scope function vec3_cross $end
$upscope $end
$scope function vec3_dot $end
$upscope $end
$scope function vec3_floor $end
$upscope $end
$scope function vec3_fract $end
$upscope $end
$scope function vec3_from_reals $end
$scope begin $unm_blk_216 $end
$upscope $end
$upscope $end
$scope function vec3_max $end
$upscope $end
$scope function vec3_min $end
$upscope $end
$scope function vec3_modded $end
$upscope $end
$scope function vec3_neg $end
$upscope $end
$scope function vec3_normed $end
$upscope $end
$scope function vec3_scaled $end
$upscope $end
$scope function vec3_scaled_2 $end
$upscope $end
$scope function vec3_scaled_3 $end
$upscope $end
$scope function vec3_scaled_half $end
$upscope $end
$scope function vec3_sign $end
$upscope $end
$scope function vec3_sl $end
$upscope $end
$scope function vec3_sr $end
$upscope $end
$scope function vec3_step $end
$upscope $end
$scope function vec3_sub $end
$upscope $end
$upscope $end
$scope module f1 $end
$var wire 1 # clk_in $end
$var wire 66 E" point_in [65:0] $end
$var wire 1 & rst_in $end
$var wire 66 F" hhh [65:0] $end
$var reg 22 G" sdf_out [21:0] $end
$scope function fp_abs $end
$var reg 22 H" a [21:0] $end
$upscope $end
$scope function fp_add $end
$var reg 22 I" a [21:0] $end
$var reg 22 J" b [21:0] $end
$upscope $end
$scope function fp_apply_sign $end
$var reg 22 K" a [21:0] $end
$var reg 22 L" b [21:0] $end
$upscope $end
$scope function fp_count_leading_zeros $end
$var reg 22 M" a [21:0] $end
$var reg 1 N" found $end
$var integer 32 O" i [31:0] $end
$upscope $end
$scope function fp_floor $end
$var reg 22 P" a [21:0] $end
$var reg 22 Q" out [21:0] $end
$upscope $end
$scope function fp_fract $end
$var reg 22 R" a [21:0] $end
$upscope $end
$scope function fp_from_real $end
$var real 1 S" val $end
$upscope $end
$scope function fp_gt $end
$var reg 22 T" a [21:0] $end
$var reg 22 U" b [21:0] $end
$upscope $end
$scope function fp_inv_sqrt $end
$var reg 22 V" a [21:0] $end
$var real 1 W" r_a $end
$var real 1 X" r_inv $end
$upscope $end
$scope function fp_lt $end
$var reg 22 Y" a [21:0] $end
$var reg 22 Z" b [21:0] $end
$upscope $end
$scope function fp_max $end
$var reg 22 [" a [21:0] $end
$var reg 22 \" b [21:0] $end
$upscope $end
$scope function fp_min $end
$var reg 22 ]" a [21:0] $end
$var reg 22 ^" b [21:0] $end
$upscope $end
$scope function fp_mod $end
$var reg 22 _" a [21:0] $end
$var reg 22 `" b [21:0] $end
$var reg 44 a" div [43:0] $end
$var reg 22 b" quotient [21:0] $end
$upscope $end
$scope function fp_mul $end
$var reg 22 c" a [21:0] $end
$var reg 22 d" b [21:0] $end
$var reg 44 e" temp_result [43:0] $end
$upscope $end
$scope function fp_mul_2 $end
$var reg 22 f" a [21:0] $end
$upscope $end
$scope function fp_mul_3 $end
$var reg 22 g" a [21:0] $end
$upscope $end
$scope function fp_mul_4 $end
$var reg 22 h" a [21:0] $end
$upscope $end
$scope function fp_mul_5 $end
$var reg 22 i" a [21:0] $end
$upscope $end
$scope function fp_mul_6 $end
$var reg 22 j" a [21:0] $end
$upscope $end
$scope function fp_mul_7 $end
$var reg 22 k" a [21:0] $end
$upscope $end
$scope function fp_mul_8 $end
$var reg 22 l" a [21:0] $end
$upscope $end
$scope function fp_mul_half $end
$var reg 22 m" a [21:0] $end
$upscope $end
$scope function fp_neg $end
$var reg 22 n" a [21:0] $end
$upscope $end
$scope function fp_sign $end
$var reg 22 o" a [21:0] $end
$upscope $end
$scope function fp_sub $end
$var reg 22 p" a [21:0] $end
$var reg 22 q" b [21:0] $end
$upscope $end
$scope function fp_to_real $end
$var reg 22 r" a [21:0] $end
$upscope $end
$scope function make_vec3 $end
$upscope $end
$scope function sd_box_fast $end
$var reg 22 s" halfExtents [21:0] $end
$var reg 66 t" point [65:0] $end
$var reg 22 u" px [21:0] $end
$var reg 22 v" py [21:0] $end
$var reg 22 w" pz [21:0] $end
$var reg 22 x" x_abs [21:0] $end
$var reg 22 y" xy_max [21:0] $end
$var reg 22 z" xyz_max [21:0] $end
$var reg 22 {" y_abs [21:0] $end
$var reg 22 |" z_abs [21:0] $end
$upscope $end
$scope function vec3_abs $end
$upscope $end
$scope function vec3_add $end
$upscope $end
$scope function vec3_apply_sign $end
$upscope $end
$scope function vec3_cross $end
$upscope $end
$scope function vec3_dot $end
$upscope $end
$scope function vec3_floor $end
$upscope $end
$scope function vec3_fract $end
$upscope $end
$scope function vec3_from_reals $end
$scope begin $unm_blk_108 $end
$upscope $end
$upscope $end
$scope function vec3_max $end
$upscope $end
$scope function vec3_min $end
$upscope $end
$scope function vec3_modded $end
$upscope $end
$scope function vec3_neg $end
$upscope $end
$scope function vec3_normed $end
$upscope $end
$scope function vec3_scaled $end
$upscope $end
$scope function vec3_scaled_2 $end
$upscope $end
$scope function vec3_scaled_3 $end
$upscope $end
$scope function vec3_scaled_half $end
$upscope $end
$scope function vec3_sign $end
$upscope $end
$scope function vec3_sl $end
$upscope $end
$scope function vec3_sr $end
$upscope $end
$scope function vec3_step $end
$upscope $end
$scope function vec3_sub $end
$upscope $end
$upscope $end
$scope module f2 $end
$var wire 1 # clk_in $end
$var wire 66 }" point_in [65:0] $end
$var wire 1 & rst_in $end
$var reg 22 ~" sdf_out [21:0] $end
$upscope $end
$scope module f3 $end
$var wire 66 !# _octa4 [65:0] $end
$var wire 1 # clk_in $end
$var wire 66 "# point_in [65:0] $end
$var wire 1 & rst_in $end
$var wire 22 ## y [21:0] $end
$var wire 22 $# x [21:0] $end
$var wire 66 %# poke [65:0] $end
$var wire 22 &# p_z [21:0] $end
$var wire 22 '# p_y [21:0] $end
$var wire 22 (# p_x [21:0] $end
$var wire 66 )# octa3 [65:0] $end
$var wire 66 *# octa2 [65:0] $end
$var wire 66 +# hhh [65:0] $end
$var wire 22 ,# hash_y2 [21:0] $end
$var wire 22 -# hash_y [21:0] $end
$var wire 66 .# cube [65:0] $end
$var wire 22 /# _sdf_out [21:0] $end
$var wire 66 0# _octa1 [65:0] $end
$var wire 66 1# _id [65:0] $end
$var wire 22 2# _hash [21:0] $end
$var reg 66 3# cube_s2 [65:0] $end
$var reg 66 4# cube_s3 [65:0] $end
$var reg 22 5# hash [21:0] $end
$var reg 66 6# id [65:0] $end
$var reg 66 7# octa1 [65:0] $end
$var reg 66 8# octa4 [65:0] $end
$var reg 66 9# poke_s2 [65:0] $end
$var reg 66 :# poke_s3 [65:0] $end
$var reg 66 ;# poke_s4 [65:0] $end
$var reg 66 <# poke_s5 [65:0] $end
$var reg 22 =# sdf_out [21:0] $end
$scope function fp_abs $end
$var reg 22 ># a [21:0] $end
$upscope $end
$scope function fp_add $end
$var reg 22 ?# a [21:0] $end
$var reg 22 @# b [21:0] $end
$upscope $end
$scope function fp_apply_sign $end
$var reg 22 A# a [21:0] $end
$var reg 22 B# b [21:0] $end
$upscope $end
$scope function fp_count_leading_zeros $end
$var reg 22 C# a [21:0] $end
$var reg 1 D# found $end
$var integer 32 E# i [31:0] $end
$upscope $end
$scope function fp_floor $end
$var reg 22 F# a [21:0] $end
$var reg 22 G# out [21:0] $end
$upscope $end
$scope function fp_fract $end
$var reg 22 H# a [21:0] $end
$upscope $end
$scope function fp_from_real $end
$var real 1 I# val $end
$upscope $end
$scope function fp_gt $end
$var reg 22 J# a [21:0] $end
$var reg 22 K# b [21:0] $end
$upscope $end
$scope function fp_inv_sqrt $end
$var reg 22 L# a [21:0] $end
$var real 1 M# r_a $end
$var real 1 N# r_inv $end
$upscope $end
$scope function fp_lt $end
$var reg 22 O# a [21:0] $end
$var reg 22 P# b [21:0] $end
$upscope $end
$scope function fp_max $end
$var reg 22 Q# a [21:0] $end
$var reg 22 R# b [21:0] $end
$upscope $end
$scope function fp_min $end
$var reg 22 S# a [21:0] $end
$var reg 22 T# b [21:0] $end
$upscope $end
$scope function fp_mod $end
$var reg 22 U# a [21:0] $end
$var reg 22 V# b [21:0] $end
$var reg 44 W# div [43:0] $end
$var reg 22 X# quotient [21:0] $end
$upscope $end
$scope function fp_mul $end
$var reg 22 Y# a [21:0] $end
$var reg 22 Z# b [21:0] $end
$var reg 44 [# temp_result [43:0] $end
$upscope $end
$scope function fp_mul_2 $end
$var reg 22 \# a [21:0] $end
$upscope $end
$scope function fp_mul_3 $end
$var reg 22 ]# a [21:0] $end
$upscope $end
$scope function fp_mul_4 $end
$var reg 22 ^# a [21:0] $end
$upscope $end
$scope function fp_mul_5 $end
$var reg 22 _# a [21:0] $end
$upscope $end
$scope function fp_mul_6 $end
$var reg 22 `# a [21:0] $end
$upscope $end
$scope function fp_mul_7 $end
$var reg 22 a# a [21:0] $end
$upscope $end
$scope function fp_mul_8 $end
$var reg 22 b# a [21:0] $end
$upscope $end
$scope function fp_mul_half $end
$var reg 22 c# a [21:0] $end
$upscope $end
$scope function fp_neg $end
$var reg 22 d# a [21:0] $end
$upscope $end
$scope function fp_sign $end
$var reg 22 e# a [21:0] $end
$upscope $end
$scope function fp_sub $end
$var reg 22 f# a [21:0] $end
$var reg 22 g# b [21:0] $end
$upscope $end
$scope function fp_to_real $end
$var reg 22 h# a [21:0] $end
$upscope $end
$scope function make_vec3 $end
$upscope $end
$scope function sd_box_fast $end
$var reg 22 i# halfExtents [21:0] $end
$var reg 66 j# point [65:0] $end
$var reg 22 k# px [21:0] $end
$var reg 22 l# py [21:0] $end
$var reg 22 m# pz [21:0] $end
$var reg 22 n# x_abs [21:0] $end
$var reg 22 o# xy_max [21:0] $end
$var reg 22 p# xyz_max [21:0] $end
$var reg 22 q# y_abs [21:0] $end
$var reg 22 r# z_abs [21:0] $end
$upscope $end
$scope function vec3_abs $end
$upscope $end
$scope function vec3_add $end
$upscope $end
$scope function vec3_apply_sign $end
$upscope $end
$scope function vec3_cross $end
$upscope $end
$scope function vec3_dot $end
$upscope $end
$scope function vec3_floor $end
$upscope $end
$scope function vec3_fract $end
$upscope $end
$scope function vec3_from_reals $end
$scope begin $unm_blk_273 $end
$upscope $end
$upscope $end
$scope function vec3_max $end
$upscope $end
$scope function vec3_min $end
$upscope $end
$scope function vec3_modded $end
$upscope $end
$scope function vec3_neg $end
$upscope $end
$scope function vec3_normed $end
$upscope $end
$scope function vec3_scaled $end
$upscope $end
$scope function vec3_scaled_2 $end
$upscope $end
$scope function vec3_scaled_3 $end
$upscope $end
$scope function vec3_scaled_half $end
$upscope $end
$scope function vec3_sign $end
$upscope $end
$scope function vec3_sl $end
$upscope $end
$scope function vec3_sr $end
$upscope $end
$scope function vec3_step $end
$upscope $end
$scope function vec3_sub $end
$upscope $end
$upscope $end
$upscope $end
$scope task query_sdf $end
$var reg 6 s# expected_wait [5:0] $end
$var reg 66 t# pt [65:0] $end
$var reg 3 u# sel [2:0] $end
$var real 1 v# px $end
$var real 1 w# py $end
$var real 1 x# pz $end
$upscope $end
$upscope $end
$enddefinitions $end
$comment Show the parameter values. $end
$dumpall
$end
#0
$dumpvars
r0 x#
r0 w#
r0 v#
bx u#
bx t#
bx s#
bx r#
bx q#
bx p#
bx o#
bx n#
bx m#
bx l#
bx k#
bx j#
bx i#
bx h#
b1000000000000 g#
bx f#
bx e#
bx d#
bx c#
bx b#
bx a#
bx `#
bx _#
bx ^#
bx ]#
bx \#
bx [#
b100000000000000 Z#
bx Y#
bx X#
bx W#
bx V#
bx U#
bx T#
bx S#
bx R#
bx Q#
bx P#
bx O#
r0 N#
r0 M#
bx L#
b1000000000000000 K#
bx J#
r0 I#
bx H#
bx0000000000000000 G#
bx F#
bx E#
xD#
bx C#
bx B#
bx A#
bx @#
bx ?#
bx >#
bx =#
bx <#
bx ;#
bx :#
bx 9#
bx 8#
bx 7#
bx 6#
bx 5#
bx 4#
bx 3#
bx 2#
bx 1#
bx 0#
bx /#
bx .#
bx -#
bx ,#
b100000000000000000000010000000000000000000001000000000000000 +#
b0x000000000000000000000x000000000000000000000x0000000000000000 *#
b0x000000000000000000000x000000000000000000000x0000000000000000 )#
bx (#
bx '#
bx &#
bx %#
bx $#
bx ##
bx "#
b0x000000000000000000000x000000000000000000000x0000000000000000 !#
bx ~"
bx }"
bx |"
bx {"
bx z"
bx y"
bx x"
bx w"
bx v"
bx u"
bx t"
bx s"
bx r"
bx q"
bx p"
bx o"
bx n"
bx m"
bx l"
bx k"
bx j"
bx i"
bx h"
bx g"
bx f"
bx e"
bx d"
bx c"
bx b"
bx a"
bx `"
bx _"
bx ^"
bx ]"
bx \"
bx ["
bx Z"
bx Y"
r0 X"
r0 W"
bx V"
bx U"
bx T"
r0 S"
bx R"
bx Q"
bx P"
bx O"
xN"
bx M"
bx L"
bx K"
bx J"
bx I"
bx H"
bx G"
b100000000000000000000010000000000000000000001000000000000000 F"
bx E"
bx D"
bx C"
bx B"
bx A"
bx @"
bx ?"
bx >"
bx ="
bx <"
bx ;"
bx :"
bx 9"
b1000000000000 8"
bx 7"
bx 6"
bx 5"
bx 4"
bx 3"
bx 2"
bx 1"
bx 0"
bx /"
bx ."
bx -"
bx ,"
bx +"
bx *"
bx )"
bx ("
bx '"
bx &"
bx %"
bx $"
bx #"
bx ""
bx !"
bx ~
r0 }
r0 |
bx {
bx z
bx y
r0 x
bx w
bx0000000000000000 v
bx u
bx t
xs
bx r
bx q
bx p
b110011001100 o
bx n
bx m
bx l
bx k
bx j
bx i
bx h
bx g
bx f
bx e
bx d
bx c
bx b
bx a
bx `
bx _
bx ^
bx ]
bx \
bx [
bx Z
bx Y
bx X
bx W
bx V
bx U
bx T
bx S
bx R
bx Q
bx P
bx O
bx N
bx M
bx L
bx K
bx J
bx I
bx H
bx G
bx F
bx E
bx D
bx C
bx B
bx A
bx @
bx ?
bx >
bx =
bx <
bx ;
bx :
bx 9
bx 8
r0 7
r0 6
bx 5
bx 4
bx 3
r0 2
bx 1
bx 0
bx /
bx .
x-
bx ,
bx +
bx *
bx )
bx (
bx '
0&
bx %
bx $
0#
bx "
bx !
$end
#5000
b1111111111000000000000 /#
b0 f#
b1000000000000000000000100000000000000000000010000000000000000 !#
b0 R#
b0 Q#
b0 1#
b1000000000000000000000100000000000000000000010000000000000000 *#
b1000000000000000000000100000000000000000000010000000000000000 )#
b0 P#
b0 $#
b0 ##
b0 >#
b0 2#
b0 G#
b0 F#
b0 H#
b0 A#
b0 -#
b0 ,#
b0 ""
b1000000000000000 K#
b0 J#
b0 @#
b0 [#
b0 Y#
b100000000000000 Z#
b0 c#
b0 O#
b0 ?#
b0 (#
b0 '#
b0 &#
b0 B#
b0 l
b0 k
b0 j
b0 i
b0 =#
b0 5#
b0 6#
b0 8#
b0 7#
b0 4#
b0 3#
b0 <#
b0 ;#
b0 :#
b0 9#
b100000000000000 s"
b100000000000000 q"
bx0000000000000000 Q"
b1000000000000000 J"
b1000000000000000 P
b1000000000000000 R
1&
1#
#10000
0#
#15000
0&
b100000000000000 q"
1#
#20000
0#
#25000
b100000000000000000000010000000000000000000001000000000000000 1#
b1000000000000000 @#
bx P#
b1000000000000000 A#
b0x000000000000000000000x000000000000000000000x0000000000000000 !#
bx ""
b10000000000000000 c#
b0x000000000000000000000x000000000000000000000x0000000000000000 *#
b0x000000000000000000000x000000000000000000000x0000000000000000 )#
bx O#
bx l
bx k
bx j
bx i
b1111111111000000000000 =#
b1000000000000000000000100000000000000000000010000000000000000 8#
bx 3#
bx 9#
bx 7#
b100000000000000 q"
1#
#30000
0#
#35000
b101010101010 2#
b10000000000000000 G#
b10000101010101010 F#
b10000101010101010 H#
b100000000000000000000000000000 [#
b1000000000000000 Y#
b100000000000000 Z#
bx 1#
b1100000000000000 ?#
b100101010101010 @#
b0x000000000000000 A#
bx B#
b0x0000000000000000 c#
b100000000000000000000010000000000000000000001000000000000000 6#
bx 4#
bx :#
b0x000000000000000000000x000000000000000000000x0000000000000000 8#
b100000000000000 q"
1#
#40000
0#
#45000
bx 2#
bx0000000000000000 G#
bx F#
bx H#
b1000000000000000 K#
b101010101010 J#
bx ?#
bx @#
bx [#
bx Y#
b100000000000000 Z#
b101010101010 5#
bx ;#
bx 6#
b100000000000000 q"
1#
#50000
0#
#55000
bx /#
bx f#
bx R#
bx Q#
bx $#
bx ##
bx >#
bx -#
bx ,#
bx (#
bx '#
bx &#
b1000000000000000 K#
bx J#
bx <#
bx 5#
b100000000000000 q"
1#
#60000
0#
#65000
bx =#
b11010011001100110 h
b1000000000000000000000100000000000000000000010000000000000000 e
b1010011001100110 o
b10000000000000000 n
b10000000000000000000001000000000000000000000100000000000000 c
b100000000000000000000010000000000000000000001000000000000 b
b10000000000000000 $"
b10000000000000000 %"
bx ""
b100110110011001 #"
b1000000000000000000000100000000000000000000010000000000000000 :"
b100000000000000000000010000000000000000000001000000000000000 0#
b1111111000000000000000 >#
b100000000000000000000010000000000000000000001000000000000000 d
b1111110000000000000000 m
b111111100000000000000011111110000000000000001111111000000000000000 %#
b0 7"
b10000000000000000 8"
b100000000000000000000010000000000000000000001000000000000000 .#
b0 ?#
b1000000000000000 @#
b1 !
b1 _
b0 v
b0 u
b0 w
b0 G#
b0 F#
b0 f#
b1000000000000000 g#
b10 $
b10 \
b0 %
b0 ]
b0 `
b0 E"
b0 }"
b0 "#
b100000000000000 q"
b1 s#
b10 u#
b0 t#
1#
#70000
0#
#75000
b1000000000000000000000100000000000000000000010000000000000000 !#
b1000000000000000000000100000000000000000000010000000000000000 *#
b1000000000000000000000100000000000000000000010000000000000000 )#
b1000000000000000 P#
b1000000000000000 O#
b11010011001100110 g
b1001100110011001 #"
b11010011001100110 ""
b100000000000000000000010000000000000000000001000000000000000 3#
b111111100000000000000011111110000000000000001111111000000000000000 9#
b100000000000000000000010000000000000000000001000000000000000 7#
b1111111000000000000000 ~"
b1111111000000000000000 "
b1111111000000000000000 ^
b1111111100000000000000 G"
b11010011001100110 i
b0 O
b0 Y
b0 X
b0 :
b0 ;
b0 [
b0 Z
b0 W
b0 '
b0 V
b0 U
b0 T
b0 S
b0 z"
b0 y"
b0 ["
b0 \"
b0 |"
b0 {"
b0 x"
b0 H"
b0 w"
b0 v"
b0 u"
b0 t"
b0 p"
b100000000000000 q"
b0 Q"
b1000000000000000 P"
b1000000000000000 R"
b0 I"
1#
#80000
0#
#85000
b11010011001100110 f
b100110110011001 #"
b0 1#
b1000000000000000 ?#
b1111111000000000000000 @#
b1000000000000000 A#
b1111111000000000000000 B#
b10000000000000000 c#
b11010011001100110 j
b100000000000000000000010000000000000000000001000000000000000 4#
b111111100000000000000011111110000000000000001111111000000000000000 :#
b1000000000000000000000100000000000000000000010000000000000000 8#
b0 p"
b100000000000000 q"
1#
#90000
0#
#95000
b0 2#
b0 H#
b0 ?#
b0 @#
b0 [#
b0 Y#
b100000000000000 Z#
b11010011001100110 a
b111111100000000000000011111110000000000000001111111000000000000000 ;#
b0 6#
b11010011001100110 k
b100000000000000000000100000000000000000000010000000000000000 e
b10000000000000000 $"
b10000000000000000 %"
b11010011001100110 ""
b1110011001100 #"
b100000000000000000000100000000000000000000010000000000000000 :"
b10000000000000000000001000000000000000 d
b1111110000000000000000 m
b0 7"
b10000000000000000 8"
b0 v
b10000000000000000000001000000000000000 0#
b1111111000000000000000 >#
b0 u
b0 w
b0 F#
b11111110000000000000001111111000000000000000 %#
b0 f#
b100000000000000000000000000000000000000000000000000000000000 %
b100000000000000000000000000000000000000000000000000000000000 ]
b100000000000000000000000000000000000000000000000000000000000 `
b100000000000000000000000000000000000000000000000000000000000 E"
b100000000000000000000000000000000000000000000000000000000000 }"
b100000000000000000000000000000000000000000000000000000000000 "#
r0.5 v#
b100000000000000000000000000000000000000000000000000000000000 t#
r0 2
b0 p"
b100000000000000 q"
b1111111000000000000000 Q
1#
#100000
0#
#105000
b111000000000000 /#
b1000000000000 g#
b1000000000000000 f#
b1000000000000000 R#
b1000000000000000 Q#
b1000000000000000 $#
b1000000000000000 ##
b0 P#
b1111111000000000000000 -#
b1111111000000000000000 ,#
b100000000000000000000010000000000000000 !#
b1111111000000000000000 (#
b1111111000000000000000 '#
b1111111000000000000000 &#
b1000000000000000 K#
b0 J#
b100000000000000000000010000000000000000 *#
b100000000000000000000010000000000000000 )#
b1000000000000000 O#
b11010011001100110 l
b100000000000000 G"
b0 ~"
b0 "
b0 ^
b111111100000000000000011111110000000000000001111111000000000000000 <#
b0 5#
b11111110000000000000001111111000000000000000 9#
b10000000000000000000001000000000000000 7#
b1000000000000000 z"
b1000000000000000 y"
b1000000000000000 ["
b1000000000000000 x"
b0 H"
b1111111000000000000000 u"
b111111100000000000000000000000000000000000000000000000000000000000 t"
b1000000000000000 p"
b100000000000000 q"
b0 Q"
b1000000000000000 P"
b1000000000000000 R"
b0 I"
b1000000000000000 O
b1000000000000000 Y
b1000000000000000 X
b1000000000000000 :
b1000000000000000 W
b0 '
b1000000000000000 T
b100000000000000000000000000000000000000000000000000000000000 S
1#
#110000
0#
#115000
b100000000000000000000000000000000000000000000000000000000000 1#
b1111111000000000000000 @#
b1000000000000000 ?#
b1000000000000000 A#
b1111111000000000000000 B#
b10000000000000000 c#
b111000000000000 =#
b11111110000000000000001111111000000000000000 :#
b100000000000000000000010000000000000000 8#
b0 '
b0 H"
b1000000000000000 p"
b100000000000000 q"
b0 Q"
b1000000000000000 P"
b1000000000000000 R"
b0 I"
1#
#120000
0#
